{ "exam_id" : "12561061704" , "reg_cert_data" : "lib.pdf.out/1-2561-6-17-4_20180903155656.zip" , "reg_data" : [{ "reg_no" : "1" ,  "reg_id" : "1" ,  "reg_title" : "นาย" ,  "reg_fname" : "กนก" ,  "reg_lname" : "อ่อนเถื่อน" ,  "reg_cid" : "1100201149998" ,  "reg_result" : "3" ,  "reg_result_date" : "1900-01-01 00:00:00" ,  "reg_cert_filename" : "" } 
 , { "reg_no" : "2" ,  "reg_id" : "2" ,  "reg_title" : "นางสาว" ,  "reg_fname" : "กนกนาฏ" ,  "reg_lname" : "ทองแพ" ,  "reg_cid" : "1600100726090" ,  "reg_result" : "1" ,  "reg_result_date" : "2018-06-17 11:37:49" ,  "reg_cert_filename" : "test_1-2561-6-17-4-2.pdf" } 
 , { "reg_no" : "3" ,  "reg_id" : "3" ,  "reg_title" : "นางสาว" ,  "reg_fname" : "กรรณิกา" ,  "reg_lname" : "เพ็ชรนก" ,  "reg_cid" : "1390500029062" ,  "reg_result" : "1" ,  "reg_result_date" : "2018-06-17 12:11:21" ,  "reg_cert_filename" : "test_1-2561-6-17-4-3.pdf" } 
 , { "reg_no" : "4" ,  "reg_id" : "4" ,  "reg_title" : "นาย" ,  "reg_fname" : "กฤษกร" ,  "reg_lname" : "โรจน์มหามงคล" ,  "reg_cid" : "1103702368113" ,  "reg_result" : "1" ,  "reg_result_date" : "2018-06-17 11:18:38" ,  "reg_cert_filename" : "test_1-2561-6-17-4-4.pdf" } 
 , { "reg_no" : "5" ,  "reg_id" : "5" ,  "reg_title" : "นาย" ,  "reg_fname" : "กันตภณ" ,  "reg_lname" : "เก็บเงิน" ,  "reg_cid" : "1100600294967" ,  "reg_result" : "3" ,  "reg_result_date" : "1900-01-01 00:00:00" ,  "reg_cert_filename" : "" } 
 , { "reg_no" : "6" ,  "reg_id" : "6" ,  "reg_title" : "นาย" ,  "reg_fname" : "กานต์กฤตย์" ,  "reg_lname" : "ศรีตระกูล" ,  "reg_cid" : "1309900997188" ,  "reg_result" : "2" ,  "reg_result_date" : "2018-06-17 10:57:40" ,  "reg_cert_filename" : "test_1-2561-6-17-4-6.pdf" } 
 , { "reg_no" : "7" ,  "reg_id" : "7" ,  "reg_title" : "นาย" ,  "reg_fname" : "ก้าวไกล" ,  "reg_lname" : "โยธา" ,  "reg_cid" : "1529900747384" ,  "reg_result" : "1" ,  "reg_result_date" : "2018-06-17 11:10:48" ,  "reg_cert_filename" : "test_1-2561-6-17-4-7.pdf" } 
 , { "reg_no" : "8" ,  "reg_id" : "8" ,  "reg_title" : "นาย" ,  "reg_fname" : "กาศิก" ,  "reg_lname" : "พัจนโรจน์" ,  "reg_cid" : "1102002591609" ,  "reg_result" : "2" ,  "reg_result_date" : "2018-06-17 12:05:03" ,  "reg_cert_filename" : "test_1-2561-6-17-4-8.pdf" } 
 , { "reg_no" : "9" ,  "reg_id" : "9" ,  "reg_title" : "นาย" ,  "reg_fname" : "กำพล" ,  "reg_lname" : "อัครวรินทร์ชัย" ,  "reg_cid" : "1103702071056" ,  "reg_result" : "1" ,  "reg_result_date" : "2018-06-17 12:20:49" ,  "reg_cert_filename" : "test_1-2561-6-17-4-9.pdf" } 
 , { "reg_no" : "10" ,  "reg_id" : "10" ,  "reg_title" : "นางสาว" ,  "reg_fname" : "กำลังใจ" ,  "reg_lname" : "กาญจนเลขา" ,  "reg_cid" : "1102002709871" ,  "reg_result" : "1" ,  "reg_result_date" : "2018-06-17 10:54:53" ,  "reg_cert_filename" : "test_1-2561-6-17-4-10.pdf" } 
 , { "reg_no" : "11" ,  "reg_id" : "11" ,  "reg_title" : "นาย" ,  "reg_fname" : "กิตติธัช" ,  "reg_lname" : "ศรีรักษา" ,  "reg_cid" : "1849900191235" ,  "reg_result" : "1" ,  "reg_result_date" : "2018-06-17 12:18:22" ,  "reg_cert_filename" : "test_1-2561-6-17-4-11.pdf" } 
 , { "reg_no" : "12" ,  "reg_id" : "12" ,  "reg_title" : "นาย" ,  "reg_fname" : "กิตติพศ" ,  "reg_lname" : "หาญพานิช" ,  "reg_cid" : "1170600137845" ,  "reg_result" : "1" ,  "reg_result_date" : "2018-06-17 12:10:27" ,  "reg_cert_filename" : "test_1-2561-6-17-4-12.pdf" } 
 , { "reg_no" : "13" ,  "reg_id" : "13" ,  "reg_title" : "นางสาว" ,  "reg_fname" : "กุลธิดา" ,  "reg_lname" : "วรรณวิสูตร" ,  "reg_cid" : "1103300171986" ,  "reg_result" : "1" ,  "reg_result_date" : "2018-06-17 12:06:15" ,  "reg_cert_filename" : "test_1-2561-6-17-4-13.pdf" } 
 , { "reg_no" : "14" ,  "reg_id" : "14" ,  "reg_title" : "นาย" ,  "reg_fname" : "คณนาถ" ,  "reg_lname" : "จารุสุขถาวร" ,  "reg_cid" : "1619900266334" ,  "reg_result" : "2" ,  "reg_result_date" : "2018-06-17 12:01:24" ,  "reg_cert_filename" : "test_1-2561-6-17-4-14.pdf" } 
 , { "reg_no" : "15" ,  "reg_id" : "15" ,  "reg_title" : "นาย" ,  "reg_fname" : "จิรภัทร" ,  "reg_lname" : "กฤษณพุกก์" ,  "reg_cid" : "1100501481084" ,  "reg_result" : "1" ,  "reg_result_date" : "2018-06-17 12:04:20" ,  "reg_cert_filename" : "test_1-2561-6-17-4-15.pdf" } 
 , { "reg_no" : "16" ,  "reg_id" : "16" ,  "reg_title" : "นาย" ,  "reg_fname" : "เจตนิพัทธิ์" ,  "reg_lname" : "ลือศรัทธา" ,  "reg_cid" : "1209701784584" ,  "reg_result" : "1" ,  "reg_result_date" : "2018-06-17 11:21:42" ,  "reg_cert_filename" : "test_1-2561-6-17-4-16.pdf" } 
 , { "reg_no" : "17" ,  "reg_id" : "17" ,  "reg_title" : "นางสาว" ,  "reg_fname" : "เจนจิรา" ,  "reg_lname" : "ศิริธนชัย" ,  "reg_cid" : "1409901419624" ,  "reg_result" : "1" ,  "reg_result_date" : "2018-06-17 11:09:11" ,  "reg_cert_filename" : "test_1-2561-6-17-4-17.pdf" } 
 , { "reg_no" : "18" ,  "reg_id" : "18" ,  "reg_title" : "นาย" ,  "reg_fname" : "ฉัตริน" ,  "reg_lname" : "ชะวรรณ์" ,  "reg_cid" : "1103702339440" ,  "reg_result" : "1" ,  "reg_result_date" : "2018-06-17 11:19:35" ,  "reg_cert_filename" : "test_1-2561-6-17-4-18.pdf" } 
 , { "reg_no" : "19" ,  "reg_id" : "19" ,  "reg_title" : "นาย" ,  "reg_fname" : "เฉลิมวงศ์" ,  "reg_lname" : "วงศาธิชัยสกุล" ,  "reg_cid" : "1100702474719" ,  "reg_result" : "1" ,  "reg_result_date" : "2018-06-17 11:11:00" ,  "reg_cert_filename" : "test_1-2561-6-17-4-19.pdf" } 
 , { "reg_no" : "20" ,  "reg_id" : "20" ,  "reg_title" : "นาย" ,  "reg_fname" : "ชญณัฐ" ,  "reg_lname" : "เลิศวิทยาวิวัฒน์" ,  "reg_cid" : "1909901550203" ,  "reg_result" : "1" ,  "reg_result_date" : "2018-06-17 11:40:52" ,  "reg_cert_filename" : "test_1-2561-6-17-4-20.pdf" } 
 , { "reg_no" : "21" ,  "reg_id" : "21" ,  "reg_title" : "นางสาว" ,  "reg_fname" : "ชลิตา" ,  "reg_lname" : "จุฑาวนิชกุล" ,  "reg_cid" : "1100801132883" ,  "reg_result" : "1" ,  "reg_result_date" : "2018-06-17 11:36:33" ,  "reg_cert_filename" : "test_1-2561-6-17-4-21.pdf" } 
 , { "reg_no" : "22" ,  "reg_id" : "22" ,  "reg_title" : "นาย" ,  "reg_fname" : "ชาตรี" ,  "reg_lname" : "แสนทำพล" ,  "reg_cid" : "1809700283837" ,  "reg_result" : "1" ,  "reg_result_date" : "2018-06-17 11:57:15" ,  "reg_cert_filename" : "test_1-2561-6-17-4-22.pdf" } 
 , { "reg_no" : "23" ,  "reg_id" : "23" ,  "reg_title" : "นาย" ,  "reg_fname" : "ชุติพงศ์" ,  "reg_lname" : "ลิ้มประเสริฐ" ,  "reg_cid" : "1100801137141" ,  "reg_result" : "1" ,  "reg_result_date" : "2018-06-17 11:46:59" ,  "reg_cert_filename" : "test_1-2561-6-17-4-23.pdf" } 
 , { "reg_no" : "24" ,  "reg_id" : "24" ,  "reg_title" : "นางสาว" ,  "reg_fname" : "ญาณิศา" ,  "reg_lname" : "ไชยหิรัญการ" ,  "reg_cid" : "1200100678099" ,  "reg_result" : "1" ,  "reg_result_date" : "2018-06-17 12:19:54" ,  "reg_cert_filename" : "test_1-2561-6-17-4-24.pdf" } 
 , { "reg_no" : "25" ,  "reg_id" : "25" ,  "reg_title" : "นาย" ,  "reg_fname" : "ฐิติพงศ์" ,  "reg_lname" : "ศักดาวุธ" ,  "reg_cid" : "1809900663218" ,  "reg_result" : "2" ,  "reg_result_date" : "2018-06-17 11:32:32" ,  "reg_cert_filename" : "test_1-2561-6-17-4-25.pdf" } 
 , { "reg_no" : "26" ,  "reg_id" : "26" ,  "reg_title" : "นางสาว" ,  "reg_fname" : "ณัฎฐา" ,  "reg_lname" : "เพชรโลหะกุล" ,  "reg_cid" : "1101700202020" ,  "reg_result" : "1" ,  "reg_result_date" : "2018-06-17 11:15:23" ,  "reg_cert_filename" : "test_1-2561-6-17-4-26.pdf" } 
 , { "reg_no" : "27" ,  "reg_id" : "27" ,  "reg_title" : "นาย" ,  "reg_fname" : "ณัฏฐพล" ,  "reg_lname" : "จันทร์โชติธนกุล" ,  "reg_cid" : "1409901133313" ,  "reg_result" : "1" ,  "reg_result_date" : "2018-06-17 11:53:41" ,  "reg_cert_filename" : "test_1-2561-6-17-4-27.pdf" } 
 , { "reg_no" : "28" ,  "reg_id" : "28" ,  "reg_title" : "นาย" ,  "reg_fname" : "ณัฏฐ์ภณ" ,  "reg_lname" : "เรียงโรจน์พิทักษ์" ,  "reg_cid" : "1100400817257" ,  "reg_result" : "1" ,  "reg_result_date" : "2018-06-17 11:29:32" ,  "reg_cert_filename" : "test_1-2561-6-17-4-28.pdf" } 
 , { "reg_no" : "29" ,  "reg_id" : "29" ,  "reg_title" : "นางสาว" ,  "reg_fname" : "ณัฏฐิกา" ,  "reg_lname" : "ชื่นชมลดา" ,  "reg_cid" : "1103300156642" ,  "reg_result" : "1" ,  "reg_result_date" : "2018-06-17 11:59:00" ,  "reg_cert_filename" : "test_1-2561-6-17-4-29.pdf" } 
 , { "reg_no" : "30" ,  "reg_id" : "30" ,  "reg_title" : "นางสาว" ,  "reg_fname" : "ณัฐณิชา" ,  "reg_lname" : "อรุณแสงมณี" ,  "reg_cid" : "1129900441009" ,  "reg_result" : "2" ,  "reg_result_date" : "2018-06-17 12:19:23" ,  "reg_cert_filename" : "test_1-2561-6-17-4-30.pdf" } 
 , { "reg_no" : "31" ,  "reg_id" : "31" ,  "reg_title" : "นาย" ,  "reg_fname" : "ณัฐพล" ,  "reg_lname" : "คุณประเสริฐ" ,  "reg_cid" : "1329900644498" ,  "reg_result" : "1" ,  "reg_result_date" : "2018-06-17 11:56:00" ,  "reg_cert_filename" : "test_1-2561-6-17-4-31.pdf" } 
 , { "reg_no" : "32" ,  "reg_id" : "32" ,  "reg_title" : "นาย" ,  "reg_fname" : "ณัฐภัทร" ,  "reg_lname" : "บำรุงรัตน์" ,  "reg_cid" : "1219900623211" ,  "reg_result" : "2" ,  "reg_result_date" : "2018-06-17 11:53:41" ,  "reg_cert_filename" : "test_1-2561-6-17-4-32.pdf" } 
 , { "reg_no" : "33" ,  "reg_id" : "33" ,  "reg_title" : "นางสาว" ,  "reg_fname" : "ทับทิม" ,  "reg_lname" : "มิ่งชัย" ,  "reg_cid" : "1349900829871" ,  "reg_result" : "1" ,  "reg_result_date" : "2018-06-17 11:51:26" ,  "reg_cert_filename" : "test_1-2561-6-17-4-33.pdf" } 
 , { "reg_no" : "34" ,  "reg_id" : "34" ,  "reg_title" : "นาย" ,  "reg_fname" : "ทิลล์ ทิม" ,  "reg_lname" : "ไวน์โฮลซ์" ,  "reg_cid" : "5200401041441" ,  "reg_result" : "1" ,  "reg_result_date" : "2018-06-17 11:20:54" ,  "reg_cert_filename" : "test_1-2561-6-17-4-34.pdf" } 
 , { "reg_no" : "35" ,  "reg_id" : "35" ,  "reg_title" : "นาย" ,  "reg_fname" : "ธนลภย์" ,  "reg_lname" : "ปรีดามาโนช" ,  "reg_cid" : "1100501165972" ,  "reg_result" : "1" ,  "reg_result_date" : "2018-06-17 11:31:48" ,  "reg_cert_filename" : "test_1-2561-6-17-4-35.pdf" } 
 , { "reg_no" : "36" ,  "reg_id" : "36" ,  "reg_title" : "นางสาว" ,  "reg_fname" : "ธนวรรณ" ,  "reg_lname" : "เลิศมงคลนาม" ,  "reg_cid" : "1100900464914" ,  "reg_result" : "1" ,  "reg_result_date" : "2018-06-17 12:20:17" ,  "reg_cert_filename" : "test_1-2561-6-17-4-36.pdf" } 
 , { "reg_no" : "37" ,  "reg_id" : "37" ,  "reg_title" : "นาย" ,  "reg_fname" : "ธนัช" ,  "reg_lname" : "อังคณาพาณิช" ,  "reg_cid" : "1100801038941" ,  "reg_result" : "1" ,  "reg_result_date" : "2018-06-17 11:11:48" ,  "reg_cert_filename" : "test_1-2561-6-17-4-37.pdf" } 
 , { "reg_no" : "38" ,  "reg_id" : "38" ,  "reg_title" : "นาย" ,  "reg_fname" : "ธนากร" ,  "reg_lname" : "สกุลวงศ์วณิชย์" ,  "reg_cid" : "1479900330964" ,  "reg_result" : "1" ,  "reg_result_date" : "2018-06-17 11:55:34" ,  "reg_cert_filename" : "test_1-2561-6-17-4-38.pdf" } 
 , { "reg_no" : "39" ,  "reg_id" : "39" ,  "reg_title" : "นาย" ,  "reg_fname" : "ธม" ,  "reg_lname" : "สันติสงวนศักดิ์" ,  "reg_cid" : "1100801260415" ,  "reg_result" : "1" ,  "reg_result_date" : "2018-06-17 11:55:06" ,  "reg_cert_filename" : "test_1-2561-6-17-4-39.pdf" } 
 , { "reg_no" : "40" ,  "reg_id" : "40" ,  "reg_title" : "นาย" ,  "reg_fname" : "ธาม" ,  "reg_lname" : "สถิตย์วิมล" ,  "reg_cid" : "1102002521724" ,  "reg_result" : "1" ,  "reg_result_date" : "2018-06-17 11:20:46" ,  "reg_cert_filename" : "test_1-2561-6-17-4-40.pdf" } 
 , { "reg_no" : "41" ,  "reg_id" : "41" ,  "reg_title" : "นาย" ,  "reg_fname" : "นพดล" ,  "reg_lname" : "ธนาวัฒน์พงษ์" ,  "reg_cid" : "1200100656915" ,  "reg_result" : "3" ,  "reg_result_date" : "1900-01-01 00:00:00" ,  "reg_cert_filename" : "" } 
 , { "reg_no" : "42" ,  "reg_id" : "42" ,  "reg_title" : "นาย" ,  "reg_fname" : "นภนต์" ,  "reg_lname" : "พัววรานุเคราะห์" ,  "reg_cid" : "1103300173962" ,  "reg_result" : "1" ,  "reg_result_date" : "2018-06-17 12:21:30" ,  "reg_cert_filename" : "test_1-2561-6-17-4-42.pdf" } 
 , { "reg_no" : "43" ,  "reg_id" : "43" ,  "reg_title" : "นาย" ,  "reg_fname" : "นิรวิทย์" ,  "reg_lname" : "สิริโรจน์วรกุล" ,  "reg_cid" : "1859900206429" ,  "reg_result" : "1" ,  "reg_result_date" : "2018-06-17 11:43:42" ,  "reg_cert_filename" : "test_1-2561-6-17-4-43.pdf" } 
 , { "reg_no" : "44" ,  "reg_id" : "44" ,  "reg_title" : "นาย" ,  "reg_fname" : "บัณฑิต" ,  "reg_lname" : "สุรัตน์" ,  "reg_cid" : "1470600096488" ,  "reg_result" : "1" ,  "reg_result_date" : "2018-06-17 12:21:10" ,  "reg_cert_filename" : "test_1-2561-6-17-4-44.pdf" } 
 , { "reg_no" : "45" ,  "reg_id" : "45" ,  "reg_title" : "นาย" ,  "reg_fname" : "บุญญโชค" ,  "reg_lname" : "รุ่งรุจิไพศาล" ,  "reg_cid" : "1102002407638" ,  "reg_result" : "1" ,  "reg_result_date" : "2018-06-17 12:21:27" ,  "reg_cert_filename" : "test_1-2561-6-17-4-45.pdf" } 
 , { "reg_no" : "46" ,  "reg_id" : "46" ,  "reg_title" : "นางสาว" ,  "reg_fname" : "บุณฑริก" ,  "reg_lname" : "เภาเจริญ" ,  "reg_cid" : "1103701409142" ,  "reg_result" : "1" ,  "reg_result_date" : "2018-06-17 12:08:55" ,  "reg_cert_filename" : "test_1-2561-6-17-4-46.pdf" } 
 , { "reg_no" : "47" ,  "reg_id" : "47" ,  "reg_title" : "นางสาว" ,  "reg_fname" : "ปภัสวรรณ" ,  "reg_lname" : "อนงค์จรรยา" ,  "reg_cid" : "1509970061686" ,  "reg_result" : "2" ,  "reg_result_date" : "2018-06-17 12:17:07" ,  "reg_cert_filename" : "test_1-2561-6-17-4-47.pdf" } 
 , { "reg_no" : "48" ,  "reg_id" : "48" ,  "reg_title" : "นาย" ,  "reg_fname" : "ประพันธ์" ,  "reg_lname" : "ประพันธ์สันติ" ,  "reg_cid" : "1139700001595" ,  "reg_result" : "2" ,  "reg_result_date" : "2018-06-17 11:28:37" ,  "reg_cert_filename" : "test_1-2561-6-17-4-48.pdf" } 
 , { "reg_no" : "49" ,  "reg_id" : "49" ,  "reg_title" : "นางสาว" ,  "reg_fname" : "ประภัสสร" ,  "reg_lname" : "เตียวพานิชย์กิจ" ,  "reg_cid" : "1350100367084" ,  "reg_result" : "1" ,  "reg_result_date" : "2018-06-17 12:09:29" ,  "reg_cert_filename" : "test_1-2561-6-17-4-49.pdf" } 
 , { "reg_no" : "50" ,  "reg_id" : "50" ,  "reg_title" : "นาย" ,  "reg_fname" : "ปรีดี" ,  "reg_lname" : "โล้วโสภณกุล" ,  "reg_cid" : "1939900331478" ,  "reg_result" : "1" ,  "reg_result_date" : "2018-06-17 10:50:30" ,  "reg_cert_filename" : "test_1-2561-6-17-4-50.pdf" } 
 , { "reg_no" : "51" ,  "reg_id" : "51" ,  "reg_title" : "นางสาว" ,  "reg_fname" : "ปวริศา" ,  "reg_lname" : "นามมุง" ,  "reg_cid" : "1419900599939" ,  "reg_result" : "2" ,  "reg_result_date" : "2018-06-17 12:19:18" ,  "reg_cert_filename" : "test_1-2561-6-17-4-51.pdf" } 
 , { "reg_no" : "52" ,  "reg_id" : "52" ,  "reg_title" : "นาย" ,  "reg_fname" : "ปวัน" ,  "reg_lname" : "พงษ์พานิช" ,  "reg_cid" : "1100702396718" ,  "reg_result" : "3" ,  "reg_result_date" : "1900-01-01 00:00:00" ,  "reg_cert_filename" : "" } 
 , { "reg_no" : "53" ,  "reg_id" : "53" ,  "reg_title" : "นาย" ,  "reg_fname" : "ปารเมศ" ,  "reg_lname" : "เกินสอน" ,  "reg_cid" : "1103702216011" ,  "reg_result" : "2" ,  "reg_result_date" : "2018-06-17 12:18:43" ,  "reg_cert_filename" : "test_1-2561-6-17-4-53.pdf" } 
 , { "reg_no" : "54" ,  "reg_id" : "54" ,  "reg_title" : "นางสาว" ,  "reg_fname" : "ปิยนุช" ,  "reg_lname" : "เสมาทัต" ,  "reg_cid" : "1149900476350" ,  "reg_result" : "1" ,  "reg_result_date" : "2018-06-17 11:38:04" ,  "reg_cert_filename" : "test_1-2561-6-17-4-54.pdf" } 
 , { "reg_no" : "55" ,  "reg_id" : "55" ,  "reg_title" : "นางสาว" ,  "reg_fname" : "ปิยะพร" ,  "reg_lname" : "สลับศรี" ,  "reg_cid" : "1909801119161" ,  "reg_result" : "2" ,  "reg_result_date" : "2018-06-17 12:12:03" ,  "reg_cert_filename" : "test_1-2561-6-17-4-55.pdf" } 
 , { "reg_no" : "56" ,  "reg_id" : "56" ,  "reg_title" : "นาย" ,  "reg_fname" : "พงศกร" ,  "reg_lname" : "สุภัคพานิชย์กุล" ,  "reg_cid" : "1100801090528" ,  "reg_result" : "1" ,  "reg_result_date" : "2018-06-17 11:45:25" ,  "reg_cert_filename" : "test_1-2561-6-17-4-56.pdf" } 
 , { "reg_no" : "57" ,  "reg_id" : "57" ,  "reg_title" : "นาย" ,  "reg_fname" : "พชร" ,  "reg_lname" : "อุทัยรัตนกิจ" ,  "reg_cid" : "1459900555451" ,  "reg_result" : "1" ,  "reg_result_date" : "2018-06-17 12:03:11" ,  "reg_cert_filename" : "test_1-2561-6-17-4-57.pdf" } 
 , { "reg_no" : "58" ,  "reg_id" : "58" ,  "reg_title" : "นาย" ,  "reg_fname" : "พรรษ" ,  "reg_lname" : "ภูรีพรรษวงศ์" ,  "reg_cid" : "1101402116613" ,  "reg_result" : "1" ,  "reg_result_date" : "2018-06-17 12:02:17" ,  "reg_cert_filename" : "test_1-2561-6-17-4-58.pdf" } 
 , { "reg_no" : "59" ,  "reg_id" : "59" ,  "reg_title" : "นาย" ,  "reg_fname" : "พัชรพล" ,  "reg_lname" : "เจริญนันทวงศ์" ,  "reg_cid" : "1709901107255" ,  "reg_result" : "1" ,  "reg_result_date" : "2018-06-17 11:01:36" ,  "reg_cert_filename" : "test_1-2561-6-17-4-59.pdf" } 
 , { "reg_no" : "60" ,  "reg_id" : "60" ,  "reg_title" : "นางสาว" ,  "reg_fname" : "พัชวรรณ" ,  "reg_lname" : "บุญเลิศ" ,  "reg_cid" : "1229900682269" ,  "reg_result" : "1" ,  "reg_result_date" : "2018-06-17 12:21:05" ,  "reg_cert_filename" : "test_1-2561-6-17-4-60.pdf" } 
 , { "reg_no" : "61" ,  "reg_id" : "61" ,  "reg_title" : "นาย" ,  "reg_fname" : "พัฒนะ" ,  "reg_lname" : "พบสุภาพ" ,  "reg_cid" : "1709901113301" ,  "reg_result" : "2" ,  "reg_result_date" : "2018-06-17 12:03:40" ,  "reg_cert_filename" : "test_1-2561-6-17-4-61.pdf" } 
 , { "reg_no" : "62" ,  "reg_id" : "62" ,  "reg_title" : "นางสาว" ,  "reg_fname" : "พิชญา" ,  "reg_lname" : "วงศ์กุลสัมพันธ์" ,  "reg_cid" : "1549900421900" ,  "reg_result" : "1" ,  "reg_result_date" : "2018-06-17 12:21:24" ,  "reg_cert_filename" : "test_1-2561-6-17-4-62.pdf" } 
 , { "reg_no" : "63" ,  "reg_id" : "63" ,  "reg_title" : "นางสาว" ,  "reg_fname" : "พิชามญธุ์" ,  "reg_lname" : "วิริยางกูร" ,  "reg_cid" : "1309901262220" ,  "reg_result" : "1" ,  "reg_result_date" : "2018-06-17 11:45:13" ,  "reg_cert_filename" : "test_1-2561-6-17-4-63.pdf" } 
 , { "reg_no" : "64" ,  "reg_id" : "64" ,  "reg_title" : "นาย" ,  "reg_fname" : "พีรณัฐ" ,  "reg_lname" : "บูรณ์กฤษดา" ,  "reg_cid" : "1101402102469" ,  "reg_result" : "3" ,  "reg_result_date" : "1900-01-01 00:00:00" ,  "reg_cert_filename" : "" } 
 , { "reg_no" : "65" ,  "reg_id" : "65" ,  "reg_title" : "นาย" ,  "reg_fname" : "ภวิศ" ,  "reg_lname" : "วรรณธนาสิน" ,  "reg_cid" : "1103000083330" ,  "reg_result" : "1" ,  "reg_result_date" : "2018-06-17 12:19:56" ,  "reg_cert_filename" : "test_1-2561-6-17-4-65.pdf" } 
 , { "reg_no" : "66" ,  "reg_id" : "66" ,  "reg_title" : "นาย" ,  "reg_fname" : "ภัทรพล" ,  "reg_lname" : "สงพุ่ม" ,  "reg_cid" : "1809900806281" ,  "reg_result" : "1" ,  "reg_result_date" : "2018-06-17 12:08:51" ,  "reg_cert_filename" : "test_1-2561-6-17-4-66.pdf" } 
 , { "reg_no" : "67" ,  "reg_id" : "67" ,  "reg_title" : "นางสาว" ,  "reg_fname" : "ภัทรภร" ,  "reg_lname" : "ตั้งวงศ์ถาวรกิจ" ,  "reg_cid" : "1103900012307" ,  "reg_result" : "1" ,  "reg_result_date" : "2018-06-17 12:09:26" ,  "reg_cert_filename" : "test_1-2561-6-17-4-67.pdf" } 
 , { "reg_no" : "68" ,  "reg_id" : "68" ,  "reg_title" : "นางสาว" ,  "reg_fname" : "ภัทรภร" ,  "reg_lname" : "พงศ์ลภัส" ,  "reg_cid" : "1409901575251" ,  "reg_result" : "2" ,  "reg_result_date" : "2018-06-17 11:44:06" ,  "reg_cert_filename" : "test_1-2561-6-17-4-68.pdf" } 
 , { "reg_no" : "69" ,  "reg_id" : "69" ,  "reg_title" : "นางสาว" ,  "reg_fname" : "ภัทรวรรณ" ,  "reg_lname" : "กันทวี" ,  "reg_cid" : "1570300138923" ,  "reg_result" : "1" ,  "reg_result_date" : "2018-06-17 12:16:49" ,  "reg_cert_filename" : "test_1-2561-6-17-4-69.pdf" } 
 , { "reg_no" : "70" ,  "reg_id" : "70" ,  "reg_title" : "นางสาว" ,  "reg_fname" : "ภัทรานิษฐ์" ,  "reg_lname" : "หลักหาญ" ,  "reg_cid" : "1809900775555" ,  "reg_result" : "2" ,  "reg_result_date" : "2018-06-17 12:14:24" ,  "reg_cert_filename" : "test_1-2561-6-17-4-70.pdf" } 
 , { "reg_no" : "71" ,  "reg_id" : "71" ,  "reg_title" : "นางสาว" ,  "reg_fname" : "ภัทราพร" ,  "reg_lname" : "พรหมวนิช" ,  "reg_cid" : "1101402146342" ,  "reg_result" : "3" ,  "reg_result_date" : "1900-01-01 00:00:00" ,  "reg_cert_filename" : "" } 
 , { "reg_no" : "72" ,  "reg_id" : "72" ,  "reg_title" : "นางสาว" ,  "reg_fname" : "ภัทรีพรรณ" ,  "reg_lname" : "จันทร์เพ็ชร" ,  "reg_cid" : "1559900303192" ,  "reg_result" : "1" ,  "reg_result_date" : "2018-06-17 12:14:31" ,  "reg_cert_filename" : "test_1-2561-6-17-4-72.pdf" } 
 , { "reg_no" : "73" ,  "reg_id" : "73" ,  "reg_title" : "นาย" ,  "reg_fname" : "ภาคิน" ,  "reg_lname" : "พิริยะกิจสกุล" ,  "reg_cid" : "1100801203462" ,  "reg_result" : "3" ,  "reg_result_date" : "1900-01-01 00:00:00" ,  "reg_cert_filename" : "" } 
 , { "reg_no" : "74" ,  "reg_id" : "74" ,  "reg_title" : "นาย" ,  "reg_fname" : "ภาณุภัทร" ,  "reg_lname" : "ท้าวไธสง" ,  "reg_cid" : "1309700181389" ,  "reg_result" : "1" ,  "reg_result_date" : "2018-06-17 11:12:47" ,  "reg_cert_filename" : "test_1-2561-6-17-4-74.pdf" } 
 , { "reg_no" : "75" ,  "reg_id" : "75" ,  "reg_title" : "นาย" ,  "reg_fname" : "ภาณุวิชญ์" ,  "reg_lname" : "บุญสุนทรเสถียร" ,  "reg_cid" : "1101402090070" ,  "reg_result" : "1" ,  "reg_result_date" : "2018-06-17 12:12:03" ,  "reg_cert_filename" : "test_1-2561-6-17-4-75.pdf" } 
 , { "reg_no" : "76" ,  "reg_id" : "76" ,  "reg_title" : "นางสาว" ,  "reg_fname" : "ภิรฐิกา" ,  "reg_lname" : "ตั้งมงคลสุข" ,  "reg_cid" : "1103702106976" ,  "reg_result" : "1" ,  "reg_result_date" : "2018-06-17 12:05:36" ,  "reg_cert_filename" : "test_1-2561-6-17-4-76.pdf" } 
 , { "reg_no" : "77" ,  "reg_id" : "77" ,  "reg_title" : "นาย" ,  "reg_fname" : "ภูร์" ,  "reg_lname" : "เดชะอำไพ" ,  "reg_cid" : "1100900479601" ,  "reg_result" : "3" ,  "reg_result_date" : "1900-01-01 00:00:00" ,  "reg_cert_filename" : "" } 
 , { "reg_no" : "78" ,  "reg_id" : "78" ,  "reg_title" : "นาย" ,  "reg_fname" : "ยศพล" ,  "reg_lname" : "จรรยาวดี" ,  "reg_cid" : "1479900333131" ,  "reg_result" : "1" ,  "reg_result_date" : "2018-06-17 11:57:47" ,  "reg_cert_filename" : "test_1-2561-6-17-4-78.pdf" } 
 , { "reg_no" : "79" ,  "reg_id" : "79" ,  "reg_title" : "นาย" ,  "reg_fname" : "ยุทธชัย" ,  "reg_lname" : "แซ่ชั้น" ,  "reg_cid" : "1119900486282" ,  "reg_result" : "1" ,  "reg_result_date" : "2018-06-17 11:31:17" ,  "reg_cert_filename" : "test_1-2561-6-17-4-79.pdf" } 
 , { "reg_no" : "80" ,  "reg_id" : "80" ,  "reg_title" : "นางสาว" ,  "reg_fname" : "รพีพรรณ" ,  "reg_lname" : "แคนลาด" ,  "reg_cid" : "1369900385905" ,  "reg_result" : "1" ,  "reg_result_date" : "2018-06-17 12:09:31" ,  "reg_cert_filename" : "test_1-2561-6-17-4-80.pdf" } 
 , { "reg_no" : "81" ,  "reg_id" : "81" ,  "reg_title" : "นาย" ,  "reg_fname" : "รมย์" ,  "reg_lname" : "รังสาดทอง" ,  "reg_cid" : "1102200156925" ,  "reg_result" : "2" ,  "reg_result_date" : "2018-06-17 11:46:50" ,  "reg_cert_filename" : "test_1-2561-6-17-4-81.pdf" } 
 , { "reg_no" : "82" ,  "reg_id" : "82" ,  "reg_title" : "นางสาว" ,  "reg_fname" : "รัตติชา" ,  "reg_lname" : "รัตนวโรชา" ,  "reg_cid" : "1100900464701" ,  "reg_result" : "1" ,  "reg_result_date" : "2018-06-17 12:11:29" ,  "reg_cert_filename" : "test_1-2561-6-17-4-82.pdf" } 
 , { "reg_no" : "83" ,  "reg_id" : "83" ,  "reg_title" : "นาย" ,  "reg_fname" : "โรจนัสถ์" ,  "reg_lname" : "วงศ์ไชยเสรี" ,  "reg_cid" : "1129700097151" ,  "reg_result" : "1" ,  "reg_result_date" : "2018-06-17 12:15:35" ,  "reg_cert_filename" : "test_1-2561-6-17-4-83.pdf" } 
 , { "reg_no" : "84" ,  "reg_id" : "84" ,  "reg_title" : "นางสาว" ,  "reg_fname" : "ลลิตา" ,  "reg_lname" : "ชูวิชัย" ,  "reg_cid" : "1459900454531" ,  "reg_result" : "2" ,  "reg_result_date" : "2018-06-17 12:18:38" ,  "reg_cert_filename" : "test_1-2561-6-17-4-84.pdf" } 
 , { "reg_no" : "85" ,  "reg_id" : "85" ,  "reg_title" : "นางสาว" ,  "reg_fname" : "ลินดา" ,  "reg_lname" : "ภักดิ์วิสัย" ,  "reg_cid" : "1869900334711" ,  "reg_result" : "2" ,  "reg_result_date" : "2018-06-17 12:11:30" ,  "reg_cert_filename" : "test_1-2561-6-17-4-85.pdf" } 
 , { "reg_no" : "86" ,  "reg_id" : "86" ,  "reg_title" : "นาย" ,  "reg_fname" : "วชิรวิชญ์" ,  "reg_lname" : "จันทร์เพ็ง" ,  "reg_cid" : "1939900292049" ,  "reg_result" : "1" ,  "reg_result_date" : "2018-06-17 12:08:00" ,  "reg_cert_filename" : "test_1-2561-6-17-4-86.pdf" } 
 , { "reg_no" : "87" ,  "reg_id" : "87" ,  "reg_title" : "นาย" ,  "reg_fname" : "วรเทพ" ,  "reg_lname" : "วงศ์วิริยะสิทธิ์" ,  "reg_cid" : "1101402136894" ,  "reg_result" : "1" ,  "reg_result_date" : "2018-06-17 12:24:06" ,  "reg_cert_filename" : "test_1-2561-6-17-4-87.pdf" } 
 , { "reg_no" : "88" ,  "reg_id" : "88" ,  "reg_title" : "นาย" ,  "reg_fname" : "วริศ" ,  "reg_lname" : "สินธพเรืองชัย" ,  "reg_cid" : "1103702353159" ,  "reg_result" : "1" ,  "reg_result_date" : "2018-06-17 11:06:35" ,  "reg_cert_filename" : "test_1-2561-6-17-4-88.pdf" } 
 , { "reg_no" : "89" ,  "reg_id" : "89" ,  "reg_title" : "นาย" ,  "reg_fname" : "วสวัตติ์" ,  "reg_lname" : "รัตนาเอนกชัย" ,  "reg_cid" : "1409901299564" ,  "reg_result" : "2" ,  "reg_result_date" : "2018-06-17 11:44:15" ,  "reg_cert_filename" : "test_1-2561-6-17-4-89.pdf" } 
 , { "reg_no" : "90" ,  "reg_id" : "90" ,  "reg_title" : "นาย" ,  "reg_fname" : "วสุรัตน์" ,  "reg_lname" : "ต่อสิริกุลชัย" ,  "reg_cid" : "1169800175927" ,  "reg_result" : "2" ,  "reg_result_date" : "2018-06-17 12:10:43" ,  "reg_cert_filename" : "test_1-2561-6-17-4-90.pdf" } 
 , { "reg_no" : "91" ,  "reg_id" : "91" ,  "reg_title" : "นางสาว" ,  "reg_fname" : "วาริน" ,  "reg_lname" : "ชีวกนิษฐ์" ,  "reg_cid" : "1101800742565" ,  "reg_result" : "1" ,  "reg_result_date" : "2018-06-17 12:23:30" ,  "reg_cert_filename" : "test_1-2561-6-17-4-91.pdf" } 
 , { "reg_no" : "92" ,  "reg_id" : "92" ,  "reg_title" : "นาย" ,  "reg_fname" : "วิชย" ,  "reg_lname" : "ซุ้นสุวรรณ" ,  "reg_cid" : "1909802245429" ,  "reg_result" : "1" ,  "reg_result_date" : "2018-06-17 11:46:48" ,  "reg_cert_filename" : "test_1-2561-6-17-4-92.pdf" } 
 , { "reg_no" : "93" ,  "reg_id" : "93" ,  "reg_title" : "นาย" ,  "reg_fname" : "วิษณุ" ,  "reg_lname" : "ชูติกาญจน์" ,  "reg_cid" : "1969900227824" ,  "reg_result" : "1" ,  "reg_result_date" : "2018-06-17 11:38:09" ,  "reg_cert_filename" : "test_1-2561-6-17-4-93.pdf" } 
 , { "reg_no" : "94" ,  "reg_id" : "94" ,  "reg_title" : "นาย" ,  "reg_fname" : "ศุภชัย" ,  "reg_lname" : "กุตัน" ,  "reg_cid" : "1209700626748" ,  "reg_result" : "1" ,  "reg_result_date" : "2018-06-17 12:17:55" ,  "reg_cert_filename" : "test_1-2561-6-17-4-94.pdf" } 
 , { "reg_no" : "95" ,  "reg_id" : "95" ,  "reg_title" : "นาย" ,  "reg_fname" : "ศุภชัย" ,  "reg_lname" : "เจนประดิษฐ์วงศ์" ,  "reg_cid" : "1100400882814" ,  "reg_result" : "2" ,  "reg_result_date" : "2018-06-17 11:28:08" ,  "reg_cert_filename" : "test_1-2561-6-17-4-95.pdf" } 
 , { "reg_no" : "96" ,  "reg_id" : "96" ,  "reg_title" : "นาย" ,  "reg_fname" : "ศุภณัฐ" ,  "reg_lname" : "วันชัย" ,  "reg_cid" : "1103000113506" ,  "reg_result" : "1" ,  "reg_result_date" : "2018-06-17 11:49:25" ,  "reg_cert_filename" : "test_1-2561-6-17-4-96.pdf" } 
 , { "reg_no" : "97" ,  "reg_id" : "97" ,  "reg_title" : "นาย" ,  "reg_fname" : "ศุภณัฐ" ,  "reg_lname" : "หาญสกุลบรรเทิง" ,  "reg_cid" : "1100600381070" ,  "reg_result" : "1" ,  "reg_result_date" : "2018-06-17 11:33:10" ,  "reg_cert_filename" : "test_1-2561-6-17-4-97.pdf" } 
 , { "reg_no" : "98" ,  "reg_id" : "98" ,  "reg_title" : "นาย" ,  "reg_fname" : "สิทธิณัฐ" ,  "reg_lname" : "วงษ์ศุทธิภากร" ,  "reg_cid" : "1600100629400" ,  "reg_result" : "1" ,  "reg_result_date" : "2018-06-17 11:17:17" ,  "reg_cert_filename" : "test_1-2561-6-17-4-98.pdf" } 
 , { "reg_no" : "99" ,  "reg_id" : "99" ,  "reg_title" : "นางสาว" ,  "reg_fname" : "สิริวิมล" ,  "reg_lname" : "กี่ดำรงกูล" ,  "reg_cid" : "1103000130397" ,  "reg_result" : "1" ,  "reg_result_date" : "2018-06-17 12:02:45" ,  "reg_cert_filename" : "test_1-2561-6-17-4-99.pdf" } 
 , { "reg_no" : "100" ,  "reg_id" : "100" ,  "reg_title" : "นาย" ,  "reg_fname" : "สุทธิคุณ" ,  "reg_lname" : "สีห์โสภณ" ,  "reg_cid" : "1100600318467" ,  "reg_result" : "1" ,  "reg_result_date" : "2018-06-17 12:08:47" ,  "reg_cert_filename" : "test_1-2561-6-17-4-100.pdf" } 
 , { "reg_no" : "101" ,  "reg_id" : "101" ,  "reg_title" : "นางสาว" ,  "reg_fname" : "สุทธิดา" ,  "reg_lname" : "แก้วโม่ง" ,  "reg_cid" : "1509970116529" ,  "reg_result" : "2" ,  "reg_result_date" : "2018-06-17 11:20:31" ,  "reg_cert_filename" : "test_1-2561-6-17-4-101.pdf" } 
 , { "reg_no" : "102" ,  "reg_id" : "102" ,  "reg_title" : "นางสาว" ,  "reg_fname" : "สุธาสินี" ,  "reg_lname" : "วรรณจีระ" ,  "reg_cid" : "1102002527391" ,  "reg_result" : "1" ,  "reg_result_date" : "2018-06-17 11:45:56" ,  "reg_cert_filename" : "test_1-2561-6-17-4-102.pdf" } 
 , { "reg_no" : "103" ,  "reg_id" : "103" ,  "reg_title" : "นางสาว" ,  "reg_fname" : "สุมณทิพย์" ,  "reg_lname" : "สร้างเขตร์" ,  "reg_cid" : "1749800158679" ,  "reg_result" : "2" ,  "reg_result_date" : "2018-06-17 11:35:04" ,  "reg_cert_filename" : "test_1-2561-6-17-4-103.pdf" } 
 , { "reg_no" : "104" ,  "reg_id" : "104" ,  "reg_title" : "นาย" ,  "reg_fname" : "สุเมธ" ,  "reg_lname" : "สุเมธเทพานันท์" ,  "reg_cid" : "1529900969107" ,  "reg_result" : "1" ,  "reg_result_date" : "2018-06-17 11:47:52" ,  "reg_cert_filename" : "test_1-2561-6-17-4-104.pdf" } 
 , { "reg_no" : "105" ,  "reg_id" : "105" ,  "reg_title" : "นางสาว" ,  "reg_fname" : "หฤทัย" ,  "reg_lname" : "จิตรารักสกุล" ,  "reg_cid" : "1310100214903" ,  "reg_result" : "1" ,  "reg_result_date" : "2018-06-17 12:22:47" ,  "reg_cert_filename" : "test_1-2561-6-17-4-105.pdf" } 
 , { "reg_no" : "106" ,  "reg_id" : "106" ,  "reg_title" : "นางสาว" ,  "reg_fname" : "อภิชญา" ,  "reg_lname" : "โทรัตน์" ,  "reg_cid" : "1809900764162" ,  "reg_result" : "2" ,  "reg_result_date" : "2018-06-17 11:47:35" ,  "reg_cert_filename" : "test_1-2561-6-17-4-106.pdf" } 
 , { "reg_no" : "107" ,  "reg_id" : "107" ,  "reg_title" : "นาย" ,  "reg_fname" : "อภิสิทธิ์" ,  "reg_lname" : "ปิ่นทองดี" ,  "reg_cid" : "1102002670541" ,  "reg_result" : "2" ,  "reg_result_date" : "2018-06-17 12:22:37" ,  "reg_cert_filename" : "test_1-2561-6-17-4-107.pdf" } 
 , { "reg_no" : "108" ,  "reg_id" : "108" ,  "reg_title" : "นางสาว" ,  "reg_fname" : "อรจิรา" ,  "reg_lname" : "ผังวิวัฒน์" ,  "reg_cid" : "1102002754958" ,  "reg_result" : "3" ,  "reg_result_date" : "1900-01-01 00:00:00" ,  "reg_cert_filename" : "" } 
 , { "reg_no" : "109" ,  "reg_id" : "109" ,  "reg_title" : "นางสาว" ,  "reg_fname" : "อรยา" ,  "reg_lname" : "ไชยศรี" ,  "reg_cid" : "1809900743882" ,  "reg_result" : "2" ,  "reg_result_date" : "2018-06-17 12:10:24" ,  "reg_cert_filename" : "test_1-2561-6-17-4-109.pdf" } 
 , { "reg_no" : "110" ,  "reg_id" : "110" ,  "reg_title" : "นาย" ,  "reg_fname" : "อริยะ" ,  "reg_lname" : "จริยะกุล" ,  "reg_cid" : "1909801143304" ,  "reg_result" : "1" ,  "reg_result_date" : "2018-06-17 11:19:28" ,  "reg_cert_filename" : "test_1-2561-6-17-4-110.pdf" } 
 , { "reg_no" : "111" ,  "reg_id" : "111" ,  "reg_title" : "นางสาว" ,  "reg_fname" : "อาทิตยา" ,  "reg_lname" : "รินอินทร์" ,  "reg_cid" : "1409901449671" ,  "reg_result" : "1" ,  "reg_result_date" : "2018-06-17 12:21:36" ,  "reg_cert_filename" : "test_1-2561-6-17-4-111.pdf" } 
 , { "reg_no" : "112" ,  "reg_id" : "112" ,  "reg_title" : "นาย" ,  "reg_fname" : "อานุภาพ" ,  "reg_lname" : "รุ่งเรือง" ,  "reg_cid" : "1469900288585" ,  "reg_result" : "1" ,  "reg_result_date" : "2018-06-17 11:43:52" ,  "reg_cert_filename" : "test_1-2561-6-17-4-112.pdf" } 
 , { "reg_no" : "113" ,  "reg_id" : "113" ,  "reg_title" : "นางสาว" ,  "reg_fname" : "อุดมพร" ,  "reg_lname" : "อักษรนำ" ,  "reg_cid" : "1809700269095" ,  "reg_result" : "2" ,  "reg_result_date" : "2018-06-17 11:56:38" ,  "reg_cert_filename" : "test_1-2561-6-17-4-113.pdf" } 
 , { "reg_no" : "114" ,  "reg_id" : "114" ,  "reg_title" : "นางสาว" ,  "reg_fname" : "กชกร" ,  "reg_lname" : "เจริญยิ่ง" ,  "reg_cid" : "1529900790646" ,  "reg_result" : "1" ,  "reg_result_date" : "2018-06-17 12:00:48" ,  "reg_cert_filename" : "test_1-2561-6-17-4-114.pdf" } 
 , { "reg_no" : "115" ,  "reg_id" : "115" ,  "reg_title" : "นางสาว" ,  "reg_fname" : "กมลชนก" ,  "reg_lname" : "ก่อทอง" ,  "reg_cid" : "1809700238696" ,  "reg_result" : "2" ,  "reg_result_date" : "2018-06-17 11:16:13" ,  "reg_cert_filename" : "test_1-2561-6-17-4-115.pdf" } 
 , { "reg_no" : "116" ,  "reg_id" : "116" ,  "reg_title" : "นางสาว" ,  "reg_fname" : "กรวรรณ" ,  "reg_lname" : "ยอดสุวรรณ์" ,  "reg_cid" : "1409700142226" ,  "reg_result" : "2" ,  "reg_result_date" : "2018-06-17 12:07:10" ,  "reg_cert_filename" : "test_1-2561-6-17-4-116.pdf" } 
 , { "reg_no" : "117" ,  "reg_id" : "117" ,  "reg_title" : "นางสาว" ,  "reg_fname" : "กฤติยา" ,  "reg_lname" : "ทองปัน" ,  "reg_cid" : "1269900213030" ,  "reg_result" : "2" ,  "reg_result_date" : "2018-06-17 12:22:22" ,  "reg_cert_filename" : "test_1-2561-6-17-4-117.pdf" } 
 , { "reg_no" : "118" ,  "reg_id" : "118" ,  "reg_title" : "นางสาว" ,  "reg_fname" : "กวินกานต์" ,  "reg_lname" : "สิทธิชัย" ,  "reg_cid" : "1101500869900" ,  "reg_result" : "1" ,  "reg_result_date" : "2018-06-17 12:11:06" ,  "reg_cert_filename" : "test_1-2561-6-17-4-118.pdf" } 
 , { "reg_no" : "119" ,  "reg_id" : "119" ,  "reg_title" : "นาย" ,  "reg_fname" : "กัญจน์" ,  "reg_lname" : "วัฒนวรางศิกูร" ,  "reg_cid" : "1100801132158" ,  "reg_result" : "1" ,  "reg_result_date" : "2018-06-17 12:14:10" ,  "reg_cert_filename" : "test_1-2561-6-17-4-119.pdf" } 
 , { "reg_no" : "120" ,  "reg_id" : "120" ,  "reg_title" : "นางสาว" ,  "reg_fname" : "กัณฐ์ญารัตธ์" ,  "reg_lname" : "ฐิติวัฒนาการ" ,  "reg_cid" : "1509901465382" ,  "reg_result" : "1" ,  "reg_result_date" : "2018-06-17 12:17:50" ,  "reg_cert_filename" : "test_1-2561-6-17-4-120.pdf" } 
 , { "reg_no" : "121" ,  "reg_id" : "121" ,  "reg_title" : "นางสาว" ,  "reg_fname" : "กันยารัตน์" ,  "reg_lname" : "กำแพงแก้ว" ,  "reg_cid" : "1160100526401" ,  "reg_result" : "2" ,  "reg_result_date" : "2018-06-17 12:17:56" ,  "reg_cert_filename" : "test_1-2561-6-17-4-121.pdf" } 
 , { "reg_no" : "122" ,  "reg_id" : "122" ,  "reg_title" : "นาย" ,  "reg_fname" : "กิตติสักก์" ,  "reg_lname" : "ตันปิชาติ" ,  "reg_cid" : "1909801035374" ,  "reg_result" : "1" ,  "reg_result_date" : "2018-06-17 12:11:30" ,  "reg_cert_filename" : "test_1-2561-6-17-4-122.pdf" } 
 , { "reg_no" : "123" ,  "reg_id" : "123" ,  "reg_title" : "นาย" ,  "reg_fname" : "กีรติ" ,  "reg_lname" : "สันติศานติ์" ,  "reg_cid" : "1659900754355" ,  "reg_result" : "1" ,  "reg_result_date" : "2018-06-17 11:57:47" ,  "reg_cert_filename" : "test_1-2561-6-17-4-123.pdf" } 
 , { "reg_no" : "124" ,  "reg_id" : "124" ,  "reg_title" : "นางสาว" ,  "reg_fname" : "กุลสตรี" ,  "reg_lname" : "เชียงตา" ,  "reg_cid" : "1510300081042" ,  "reg_result" : "2" ,  "reg_result_date" : "2018-06-17 12:16:09" ,  "reg_cert_filename" : "test_1-2561-6-17-4-124.pdf" } 
 , { "reg_no" : "125" ,  "reg_id" : "125" ,  "reg_title" : "นางสาว" ,  "reg_fname" : "จิราพร" ,  "reg_lname" : "ทองเกลี้ยง" ,  "reg_cid" : "1102700540813" ,  "reg_result" : "1" ,  "reg_result_date" : "2018-06-17 12:18:51" ,  "reg_cert_filename" : "test_1-2561-6-17-4-125.pdf" } 
 , { "reg_no" : "126" ,  "reg_id" : "126" ,  "reg_title" : "นางสาว" ,  "reg_fname" : "ชณิดาภา" ,  "reg_lname" : "สิทธิกรณ์" ,  "reg_cid" : "1100201199723" ,  "reg_result" : "2" ,  "reg_result_date" : "2018-06-17 12:10:14" ,  "reg_cert_filename" : "test_1-2561-6-17-4-126.pdf" } 
 , { "reg_no" : "127" ,  "reg_id" : "127" ,  "reg_title" : "นาย" ,  "reg_fname" : "ชิตชยุตม์" ,  "reg_lname" : "แสงวิเศษ" ,  "reg_cid" : "1489900265968" ,  "reg_result" : "2" ,  "reg_result_date" : "2018-06-17 11:47:39" ,  "reg_cert_filename" : "test_1-2561-6-17-4-127.pdf" } 
 , { "reg_no" : "128" ,  "reg_id" : "128" ,  "reg_title" : "นางสาว" ,  "reg_fname" : "โชติกา" ,  "reg_lname" : "พิมพา" ,  "reg_cid" : "1909801035471" ,  "reg_result" : "2" ,  "reg_result_date" : "2018-06-17 11:22:51" ,  "reg_cert_filename" : "test_1-2561-6-17-4-128.pdf" } 
 , { "reg_no" : "129" ,  "reg_id" : "129" ,  "reg_title" : "นาย" ,  "reg_fname" : "โชติชนน์" ,  "reg_lname" : "สงวนพานิช" ,  "reg_cid" : "1100201068122" ,  "reg_result" : "1" ,  "reg_result_date" : "2018-06-17 10:49:36" ,  "reg_cert_filename" : "test_1-2561-6-17-4-129.pdf" } 
 , { "reg_no" : "130" ,  "reg_id" : "130" ,  "reg_title" : "นางสาว" ,  "reg_fname" : "โชติรส" ,  "reg_lname" : "กูลเกื้อ" ,  "reg_cid" : "1600100707851" ,  "reg_result" : "2" ,  "reg_result_date" : "2018-06-17 12:17:33" ,  "reg_cert_filename" : "test_1-2561-6-17-4-130.pdf" } 
 , { "reg_no" : "131" ,  "reg_id" : "131" ,  "reg_title" : "นาย" ,  "reg_fname" : "ณัชภณ" ,  "reg_lname" : "คลังพลอย" ,  "reg_cid" : "1101800886354" ,  "reg_result" : "2" ,  "reg_result_date" : "2018-06-17 11:33:55" ,  "reg_cert_filename" : "test_1-2561-6-17-4-131.pdf" } 
 , { "reg_no" : "132" ,  "reg_id" : "132" ,  "reg_title" : "นางสาว" ,  "reg_fname" : "ณัฏฐรี" ,  "reg_lname" : "รัฐศาสตร์วาริน" ,  "reg_cid" : "1479900280100" ,  "reg_result" : "3" ,  "reg_result_date" : "1900-01-01 00:00:00" ,  "reg_cert_filename" : "" } 
 , { "reg_no" : "133" ,  "reg_id" : "133" ,  "reg_title" : "นางสาว" ,  "reg_fname" : "ณัฐกฤตา" ,  "reg_lname" : "กาญจนสงค์" ,  "reg_cid" : "1849900248822" ,  "reg_result" : "2" ,  "reg_result_date" : "2018-06-17 11:41:40" ,  "reg_cert_filename" : "test_1-2561-6-17-4-133.pdf" } 
 , { "reg_no" : "134" ,  "reg_id" : "134" ,  "reg_title" : "นางสาว" ,  "reg_fname" : "ณัฐญา" ,  "reg_lname" : "ทองปันจา" ,  "reg_cid" : "1909801060123" ,  "reg_result" : "2" ,  "reg_result_date" : "2018-06-17 12:14:14" ,  "reg_cert_filename" : "test_1-2561-6-17-4-134.pdf" } 
 , { "reg_no" : "135" ,  "reg_id" : "135" ,  "reg_title" : "นาย" ,  "reg_fname" : "ณัฐภัทร" ,  "reg_lname" : "จิรนันทศักดิ์" ,  "reg_cid" : "1104000009742" ,  "reg_result" : "2" ,  "reg_result_date" : "2018-06-17 11:13:42" ,  "reg_cert_filename" : "test_1-2561-6-17-4-135.pdf" } 
 , { "reg_no" : "136" ,  "reg_id" : "136" ,  "reg_title" : "นาย" ,  "reg_fname" : "ณัฐภัทร" ,  "reg_lname" : "ปาณะวงศ์" ,  "reg_cid" : "1379900031615" ,  "reg_result" : "2" ,  "reg_result_date" : "2018-06-17 12:20:56" ,  "reg_cert_filename" : "test_1-2561-6-17-4-136.pdf" } 
 , { "reg_no" : "137" ,  "reg_id" : "137" ,  "reg_title" : "นาย" ,  "reg_fname" : "ดนัย" ,  "reg_lname" : "หลายรุ่งโรจน์" ,  "reg_cid" : "1103701785691" ,  "reg_result" : "1" ,  "reg_result_date" : "2018-06-17 11:14:42" ,  "reg_cert_filename" : "test_1-2561-6-17-4-137.pdf" } 
 , { "reg_no" : "138" ,  "reg_id" : "138" ,  "reg_title" : "นางสาว" ,  "reg_fname" : "ดวงกมล" ,  "reg_lname" : "จาตุรนต์" ,  "reg_cid" : "1279800047596" ,  "reg_result" : "1" ,  "reg_result_date" : "2018-06-17 12:23:59" ,  "reg_cert_filename" : "test_1-2561-6-17-4-138.pdf" } 
 , { "reg_no" : "139" ,  "reg_id" : "139" ,  "reg_title" : "นาย" ,  "reg_fname" : "ธนภัทร" ,  "reg_lname" : "จูฑะพุทธิ" ,  "reg_cid" : "1102200124578" ,  "reg_result" : "2" ,  "reg_result_date" : "2018-06-17 11:43:44" ,  "reg_cert_filename" : "test_1-2561-6-17-4-139.pdf" } 
 , { "reg_no" : "140" ,  "reg_id" : "140" ,  "reg_title" : "นาย" ,  "reg_fname" : "ธนวัฒน์" ,  "reg_lname" : "เชิดชิด" ,  "reg_cid" : "1119600004941" ,  "reg_result" : "1" ,  "reg_result_date" : "2018-06-17 12:11:32" ,  "reg_cert_filename" : "test_1-2561-6-17-4-140.pdf" } 
 , { "reg_no" : "141" ,  "reg_id" : "141" ,  "reg_title" : "นาย" ,  "reg_fname" : "ธนศักดิ์" ,  "reg_lname" : "แซ่ลิน" ,  "reg_cid" : "1100801156243" ,  "reg_result" : "1" ,  "reg_result_date" : "2018-06-17 11:47:44" ,  "reg_cert_filename" : "test_1-2561-6-17-4-141.pdf" } 
 , { "reg_no" : "142" ,  "reg_id" : "142" ,  "reg_title" : "นาย" ,  "reg_fname" : "ธนันธร" ,  "reg_lname" : "วิภาดาพิสุทธิ์" ,  "reg_cid" : "1101402116001" ,  "reg_result" : "1" ,  "reg_result_date" : "2018-06-17 12:23:04" ,  "reg_cert_filename" : "test_1-2561-6-17-4-142.pdf" } 
 , { "reg_no" : "143" ,  "reg_id" : "143" ,  "reg_title" : "นางสาว" ,  "reg_fname" : "นงลักษณ์" ,  "reg_lname" : "เชาว์" ,  "reg_cid" : "1100800969755" ,  "reg_result" : "1" ,  "reg_result_date" : "2018-06-17 12:24:32" ,  "reg_cert_filename" : "test_1-2561-6-17-4-143.pdf" } 
 , { "reg_no" : "144" ,  "reg_id" : "144" ,  "reg_title" : "นาย" ,  "reg_fname" : "นภทีป์" ,  "reg_lname" : "พิสิฏฐศักดิ์" ,  "reg_cid" : "1620700072643" ,  "reg_result" : "1" ,  "reg_result_date" : "2018-06-17 12:07:32" ,  "reg_cert_filename" : "test_1-2561-6-17-4-144.pdf" } 
 , { "reg_no" : "145" ,  "reg_id" : "145" ,  "reg_title" : "นางสาว" ,  "reg_fname" : "นภัสวรรณ" ,  "reg_lname" : "พวงเพ็ชร" ,  "reg_cid" : "1320600228342" ,  "reg_result" : "2" ,  "reg_result_date" : "2018-06-17 11:52:14" ,  "reg_cert_filename" : "test_1-2561-6-17-4-145.pdf" } 
 , { "reg_no" : "146" ,  "reg_id" : "146" ,  "reg_title" : "นางสาว" ,  "reg_fname" : "นภาพิศ" ,  "reg_lname" : "กังสมุทร" ,  "reg_cid" : "1103000136310" ,  "reg_result" : "1" ,  "reg_result_date" : "2018-06-17 12:08:41" ,  "reg_cert_filename" : "test_1-2561-6-17-4-146.pdf" } 
 , { "reg_no" : "147" ,  "reg_id" : "147" ,  "reg_title" : "นาย" ,  "reg_fname" : "นรากร" ,  "reg_lname" : "ขำปัญญา" ,  "reg_cid" : "1719900390484" ,  "reg_result" : "1" ,  "reg_result_date" : "2018-06-17 12:22:36" ,  "reg_cert_filename" : "test_1-2561-6-17-4-147.pdf" } 
 , { "reg_no" : "148" ,  "reg_id" : "148" ,  "reg_title" : "นาย" ,  "reg_fname" : "นฤเอก" ,  "reg_lname" : "ศิลป์ร่วมรักษ์" ,  "reg_cid" : "1100400892232" ,  "reg_result" : "3" ,  "reg_result_date" : "1900-01-01 00:00:00" ,  "reg_cert_filename" : "" } 
 , { "reg_no" : "149" ,  "reg_id" : "149" ,  "reg_title" : "นางสาว" ,  "reg_fname" : "นาถชาดา" ,  "reg_lname" : "วิมาลา" ,  "reg_cid" : "1103701872390" ,  "reg_result" : "1" ,  "reg_result_date" : "2018-06-17 12:00:12" ,  "reg_cert_filename" : "test_1-2561-6-17-4-149.pdf" } 
 , { "reg_no" : "150" ,  "reg_id" : "150" ,  "reg_title" : "นางสาว" ,  "reg_fname" : "เบญญา" ,  "reg_lname" : "หวังสัมฤทธิ์ผล" ,  "reg_cid" : "1101500929023" ,  "reg_result" : "1" ,  "reg_result_date" : "2018-06-17 11:58:28" ,  "reg_cert_filename" : "test_1-2561-6-17-4-150.pdf" } 
 , { "reg_no" : "151" ,  "reg_id" : "151" ,  "reg_title" : "นางสาว" ,  "reg_fname" : "ประวีณา" ,  "reg_lname" : "มานพ" ,  "reg_cid" : "1100801180454" ,  "reg_result" : "1" ,  "reg_result_date" : "2018-06-17 12:21:21" ,  "reg_cert_filename" : "test_1-2561-6-17-4-151.pdf" } 
 , { "reg_no" : "152" ,  "reg_id" : "152" ,  "reg_title" : "นางสาว" ,  "reg_fname" : "ปรีชญา" ,  "reg_lname" : "แซ่ตั๋น" ,  "reg_cid" : "1820600063799" ,  "reg_result" : "1" ,  "reg_result_date" : "2018-06-17 12:16:17" ,  "reg_cert_filename" : "test_1-2561-6-17-4-152.pdf" } 
 , { "reg_no" : "153" ,  "reg_id" : "153" ,  "reg_title" : "นาย" ,  "reg_fname" : "ปัณณวิชญ์" ,  "reg_lname" : "โพธานันท์" ,  "reg_cid" : "1101700207846" ,  "reg_result" : "1" ,  "reg_result_date" : "2018-06-17 11:44:21" ,  "reg_cert_filename" : "test_1-2561-6-17-4-153.pdf" } 
 , { "reg_no" : "154" ,  "reg_id" : "154" ,  "reg_title" : "นาย" ,  "reg_fname" : "ปาณัสม์" ,  "reg_lname" : "เอกศิลป์" ,  "reg_cid" : "1969900201868" ,  "reg_result" : "1" ,  "reg_result_date" : "2018-06-17 12:02:36" ,  "reg_cert_filename" : "test_1-2561-6-17-4-154.pdf" } 
 , { "reg_no" : "155" ,  "reg_id" : "155" ,  "reg_title" : "นาย" ,  "reg_fname" : "พงค์พัฒน์" ,  "reg_lname" : "จำรัสรัตนกร" ,  "reg_cid" : "1509901578128" ,  "reg_result" : "1" ,  "reg_result_date" : "2018-06-17 10:51:52" ,  "reg_cert_filename" : "test_1-2561-6-17-4-155.pdf" } 
 , { "reg_no" : "156" ,  "reg_id" : "156" ,  "reg_title" : "นาย" ,  "reg_fname" : "พงศธร" ,  "reg_lname" : "รีชัยวิจิตรกุล" ,  "reg_cid" : "1470600115245" ,  "reg_result" : "1" ,  "reg_result_date" : "2018-06-17 12:12:19" ,  "reg_cert_filename" : "test_1-2561-6-17-4-156.pdf" } 
 , { "reg_no" : "157" ,  "reg_id" : "157" ,  "reg_title" : "นาย" ,  "reg_fname" : "พงศธร" ,  "reg_lname" : "สิงห์ทอง" ,  "reg_cid" : "1100600322472" ,  "reg_result" : "1" ,  "reg_result_date" : "2018-06-17 12:05:55" ,  "reg_cert_filename" : "test_1-2561-6-17-4-157.pdf" } 
 , { "reg_no" : "158" ,  "reg_id" : "158" ,  "reg_title" : "นาย" ,  "reg_fname" : "พชร" ,  "reg_lname" : "อัครวิบูลย์" ,  "reg_cid" : "1809900714475" ,  "reg_result" : "2" ,  "reg_result_date" : "2018-06-17 11:55:37" ,  "reg_cert_filename" : "test_1-2561-6-17-4-158.pdf" } 
 , { "reg_no" : "159" ,  "reg_id" : "159" ,  "reg_title" : "นางสาว" ,  "reg_fname" : "พรไพลิน" ,  "reg_lname" : "อาจดวงดี" ,  "reg_cid" : "1209700685329" ,  "reg_result" : "1" ,  "reg_result_date" : "2018-06-17 11:54:04" ,  "reg_cert_filename" : "test_1-2561-6-17-4-159.pdf" } 
 , { "reg_no" : "160" ,  "reg_id" : "160" ,  "reg_title" : "นางสาว" ,  "reg_fname" : "พลอยพรรณ" ,  "reg_lname" : "วัฒนาศรมศิริ" ,  "reg_cid" : "1100400780485" ,  "reg_result" : "3" ,  "reg_result_date" : "1900-01-01 00:00:00" ,  "reg_cert_filename" : "" } 
 , { "reg_no" : "161" ,  "reg_id" : "161" ,  "reg_title" : "นางสาว" ,  "reg_fname" : "พาณิภัค" ,  "reg_lname" : "ศรีวิเชียรโชค" ,  "reg_cid" : "1100801118686" ,  "reg_result" : "2" ,  "reg_result_date" : "2018-06-17 12:04:04" ,  "reg_cert_filename" : "test_1-2561-6-17-4-161.pdf" } 
 , { "reg_no" : "162" ,  "reg_id" : "162" ,  "reg_title" : "นาย" ,  "reg_fname" : "พิเชฐ" ,  "reg_lname" : "ชาไชย" ,  "reg_cid" : "1100501300187" ,  "reg_result" : "1" ,  "reg_result_date" : "2018-06-17 11:39:53" ,  "reg_cert_filename" : "test_1-2561-6-17-4-162.pdf" } 
 , { "reg_no" : "163" ,  "reg_id" : "163" ,  "reg_title" : "นางสาว" ,  "reg_fname" : "พิภัทรา" ,  "reg_lname" : "ลิขิตอรุณรัตน์" ,  "reg_cid" : "1101700175502" ,  "reg_result" : "2" ,  "reg_result_date" : "2018-06-17 12:16:12" ,  "reg_cert_filename" : "test_1-2561-6-17-4-163.pdf" } 
 , { "reg_no" : "164" ,  "reg_id" : "164" ,  "reg_title" : "นางสาว" ,  "reg_fname" : "พิมพ์ชนก" ,  "reg_lname" : "กาญจนภิญโญวงศ์" ,  "reg_cid" : "1102002641584" ,  "reg_result" : "1" ,  "reg_result_date" : "2018-06-17 11:34:04" ,  "reg_cert_filename" : "test_1-2561-6-17-4-164.pdf" } 
 , { "reg_no" : "165" ,  "reg_id" : "165" ,  "reg_title" : "นางสาว" ,  "reg_fname" : "ภัทรดา" ,  "reg_lname" : "ทิวาพรมงคล" ,  "reg_cid" : "1104000013804" ,  "reg_result" : "1" ,  "reg_result_date" : "2018-06-17 11:10:01" ,  "reg_cert_filename" : "test_1-2561-6-17-4-165.pdf" } 
 , { "reg_no" : "166" ,  "reg_id" : "166" ,  "reg_title" : "นางสาว" ,  "reg_fname" : "ภัทรภร" ,  "reg_lname" : "สารสุวรรณ" ,  "reg_cid" : "1669900304121" ,  "reg_result" : "1" ,  "reg_result_date" : "2018-06-17 11:45:50" ,  "reg_cert_filename" : "test_1-2561-6-17-4-166.pdf" } 
 , { "reg_no" : "167" ,  "reg_id" : "167" ,  "reg_title" : "นางสาว" ,  "reg_fname" : "ภัทรสุดา" ,  "reg_lname" : "เถลิงศักดิ์ไพศาล" ,  "reg_cid" : "1100801202121" ,  "reg_result" : "1" ,  "reg_result_date" : "2018-06-17 11:56:36" ,  "reg_cert_filename" : "test_1-2561-6-17-4-167.pdf" } 
 , { "reg_no" : "168" ,  "reg_id" : "168" ,  "reg_title" : "นางสาว" ,  "reg_fname" : "ภัทรา" ,  "reg_lname" : "โภคทรัพย์" ,  "reg_cid" : "1309901253832" ,  "reg_result" : "1" ,  "reg_result_date" : "2018-06-17 11:42:33" ,  "reg_cert_filename" : "test_1-2561-6-17-4-168.pdf" } 
 , { "reg_no" : "169" ,  "reg_id" : "169" ,  "reg_title" : "นางสาว" ,  "reg_fname" : "ภัสสร" ,  "reg_lname" : "รุจิอมรวัฒน์" ,  "reg_cid" : "1869900288913" ,  "reg_result" : "1" ,  "reg_result_date" : "2018-06-17 11:39:43" ,  "reg_cert_filename" : "test_1-2561-6-17-4-169.pdf" } 
 , { "reg_no" : "170" ,  "reg_id" : "170" ,  "reg_title" : "นาย" ,  "reg_fname" : "ภาณุพงศ์" ,  "reg_lname" : "สวดสม" ,  "reg_cid" : "1400900254674" ,  "reg_result" : "2" ,  "reg_result_date" : "2018-06-17 12:12:14" ,  "reg_cert_filename" : "test_1-2561-6-17-4-170.pdf" } 
 , { "reg_no" : "171" ,  "reg_id" : "171" ,  "reg_title" : "นาย" ,  "reg_fname" : "ภูดิศ" ,  "reg_lname" : "ทีฆวิวรรธน์" ,  "reg_cid" : "1339900534633" ,  "reg_result" : "1" ,  "reg_result_date" : "2018-06-17 11:21:35" ,  "reg_cert_filename" : "test_1-2561-6-17-4-171.pdf" } 
 , { "reg_no" : "172" ,  "reg_id" : "172" ,  "reg_title" : "นาย" ,  "reg_fname" : "ภูมิ" ,  "reg_lname" : "เตชะเกิดกมล" ,  "reg_cid" : "1103900007818" ,  "reg_result" : "1" ,  "reg_result_date" : "2018-06-17 11:02:11" ,  "reg_cert_filename" : "test_1-2561-6-17-4-172.pdf" } 
 , { "reg_no" : "173" ,  "reg_id" : "173" ,  "reg_title" : "นางสาว" ,  "reg_fname" : "มนัสนันท์" ,  "reg_lname" : "สุขพานิช" ,  "reg_cid" : "1409901605142" ,  "reg_result" : "1" ,  "reg_result_date" : "2018-06-17 12:02:16" ,  "reg_cert_filename" : "test_1-2561-6-17-4-173.pdf" } 
 , { "reg_no" : "174" ,  "reg_id" : "174" ,  "reg_title" : "นาย" ,  "reg_fname" : "รวิภาส" ,  "reg_lname" : "รวมเงาะ" ,  "reg_cid" : "1409901561781" ,  "reg_result" : "1" ,  "reg_result_date" : "2018-06-17 11:58:59" ,  "reg_cert_filename" : "test_1-2561-6-17-4-174.pdf" } 
 , { "reg_no" : "175" ,  "reg_id" : "175" ,  "reg_title" : "นางสาว" ,  "reg_fname" : "รุ่งฟ้า" ,  "reg_lname" : "จันทร์พุ่ม" ,  "reg_cid" : "1909800955330" ,  "reg_result" : "2" ,  "reg_result_date" : "2018-06-17 12:22:05" ,  "reg_cert_filename" : "test_1-2561-6-17-4-175.pdf" } 
 , { "reg_no" : "176" ,  "reg_id" : "176" ,  "reg_title" : "นางสาว" ,  "reg_fname" : "ลดาภรณ์" ,  "reg_lname" : "บาตดี" ,  "reg_cid" : "1139800011096" ,  "reg_result" : "2" ,  "reg_result_date" : "2018-06-17 11:37:40" ,  "reg_cert_filename" : "test_1-2561-6-17-4-176.pdf" } 
 , { "reg_no" : "177" ,  "reg_id" : "177" ,  "reg_title" : "นางสาว" ,  "reg_fname" : "ลัทธวรรณ" ,  "reg_lname" : "ไชยมงคล" ,  "reg_cid" : "1579900652847" ,  "reg_result" : "1" ,  "reg_result_date" : "2018-06-17 11:33:53" ,  "reg_cert_filename" : "test_1-2561-6-17-4-177.pdf" } 
 , { "reg_no" : "178" ,  "reg_id" : "178" ,  "reg_title" : "นาย" ,  "reg_fname" : "วงศ์ตะวัน" ,  "reg_lname" : "อุทุมรัตน์" ,  "reg_cid" : "1869900242778" ,  "reg_result" : "1" ,  "reg_result_date" : "2018-06-17 12:23:54" ,  "reg_cert_filename" : "test_1-2561-6-17-4-178.pdf" } 
 , { "reg_no" : "179" ,  "reg_id" : "179" ,  "reg_title" : "นาย" ,  "reg_fname" : "วิทยา" ,  "reg_lname" : "ก้องวิทยาคม" ,  "reg_cid" : "1101800840338" ,  "reg_result" : "1" ,  "reg_result_date" : "2018-06-17 11:07:51" ,  "reg_cert_filename" : "test_1-2561-6-17-4-179.pdf" } 
 , { "reg_no" : "180" ,  "reg_id" : "180" ,  "reg_title" : "นางสาว" ,  "reg_fname" : "วิภาสินี" ,  "reg_lname" : "สมหวัง" ,  "reg_cid" : "1839900391633" ,  "reg_result" : "1" ,  "reg_result_date" : "2018-06-17 12:15:53" ,  "reg_cert_filename" : "test_1-2561-6-17-4-180.pdf" } 
 , { "reg_no" : "181" ,  "reg_id" : "181" ,  "reg_title" : "นางสาว" ,  "reg_fname" : "วิมลิน" ,  "reg_lname" : "ม้วนเรียน" ,  "reg_cid" : "1530600037774" ,  "reg_result" : "2" ,  "reg_result_date" : "2018-06-17 11:46:57" ,  "reg_cert_filename" : "test_1-2561-6-17-4-181.pdf" } 
 , { "reg_no" : "182" ,  "reg_id" : "182" ,  "reg_title" : "นาย" ,  "reg_fname" : "วิศวะ" ,  "reg_lname" : "โกมลวิวัฒน์" ,  "reg_cid" : "1929900581911" ,  "reg_result" : "1" ,  "reg_result_date" : "2018-06-17 11:38:33" ,  "reg_cert_filename" : "test_1-2561-6-17-4-182.pdf" } 
 , { "reg_no" : "183" ,  "reg_id" : "183" ,  "reg_title" : "นาย" ,  "reg_fname" : "วิสุทธิ์" ,  "reg_lname" : "ภูชุม" ,  "reg_cid" : "1309901139231" ,  "reg_result" : "1" ,  "reg_result_date" : "2018-06-17 12:16:37" ,  "reg_cert_filename" : "test_1-2561-6-17-4-183.pdf" } 
 , { "reg_no" : "184" ,  "reg_id" : "184" ,  "reg_title" : "นางสาว" ,  "reg_fname" : "ศศิเขมณัฐ" ,  "reg_lname" : "สารพิมพ์" ,  "reg_cid" : "1100201227328" ,  "reg_result" : "1" ,  "reg_result_date" : "2018-06-17 12:23:06" ,  "reg_cert_filename" : "test_1-2561-6-17-4-184.pdf" } 
 , { "reg_no" : "185" ,  "reg_id" : "185" ,  "reg_title" : "นาย" ,  "reg_fname" : "ศักดิพัฒน์" ,  "reg_lname" : "พิศลพูล" ,  "reg_cid" : "1219900650791" ,  "reg_result" : "3" ,  "reg_result_date" : "1900-01-01 00:00:00" ,  "reg_cert_filename" : "" } 
 , { "reg_no" : "186" ,  "reg_id" : "186" ,  "reg_title" : "นาย" ,  "reg_fname" : "ศุภชัย" ,  "reg_lname" : "พงศ์สัมฤทธิ์ผล" ,  "reg_cid" : "1101700225259" ,  "reg_result" : "1" ,  "reg_result_date" : "2018-06-17 12:00:17" ,  "reg_cert_filename" : "test_1-2561-6-17-4-186.pdf" } 
 , { "reg_no" : "187" ,  "reg_id" : "187" ,  "reg_title" : "นางสาว" ,  "reg_fname" : "ศุภนิดา" ,  "reg_lname" : "วุฒิสมบูรณ์พันธุ์" ,  "reg_cid" : "1100400780787" ,  "reg_result" : "2" ,  "reg_result_date" : "2018-06-17 12:23:36" ,  "reg_cert_filename" : "test_1-2561-6-17-4-187.pdf" } 
 , { "reg_no" : "188" ,  "reg_id" : "188" ,  "reg_title" : "นาย" ,  "reg_fname" : "สิทธิพันธ์" ,  "reg_lname" : "ธีทัตติณห์" ,  "reg_cid" : "1100702316501" ,  "reg_result" : "1" ,  "reg_result_date" : "2018-06-17 12:18:24" ,  "reg_cert_filename" : "test_1-2561-6-17-4-188.pdf" } 
 , { "reg_no" : "189" ,  "reg_id" : "189" ,  "reg_title" : "นางสาว" ,  "reg_fname" : "สิรประไพ" ,  "reg_lname" : "พรหมศิลป์" ,  "reg_cid" : "1140100078114" ,  "reg_result" : "3" ,  "reg_result_date" : "1900-01-01 00:00:00" ,  "reg_cert_filename" : "" } 
 , { "reg_no" : "190" ,  "reg_id" : "190" ,  "reg_title" : "นางสาว" ,  "reg_fname" : "สิรินภรณ์" ,  "reg_lname" : "ศาลางาม" ,  "reg_cid" : "1840400074487" ,  "reg_result" : "2" ,  "reg_result_date" : "2018-06-17 12:05:10" ,  "reg_cert_filename" : "test_1-2561-6-17-4-190.pdf" } 
 , { "reg_no" : "191" ,  "reg_id" : "191" ,  "reg_title" : "นางสาว" ,  "reg_fname" : "สิรินารถ" ,  "reg_lname" : "ทองนพคุณ" ,  "reg_cid" : "1909800956093" ,  "reg_result" : "1" ,  "reg_result_date" : "2018-06-17 12:17:56" ,  "reg_cert_filename" : "test_1-2561-6-17-4-191.pdf" } 
 , { "reg_no" : "192" ,  "reg_id" : "192" ,  "reg_title" : "นางสาว" ,  "reg_fname" : "สุชาดา" ,  "reg_lname" : "แงงลำพูน" ,  "reg_cid" : "1129700109337" ,  "reg_result" : "2" ,  "reg_result_date" : "2018-06-17 12:23:27" ,  "reg_cert_filename" : "test_1-2561-6-17-4-192.pdf" } 
 , { "reg_no" : "193" ,  "reg_id" : "193" ,  "reg_title" : "นางสาว" ,  "reg_fname" : "สุชานาฏ" ,  "reg_lname" : "โปอินทร์" ,  "reg_cid" : "1849900174314" ,  "reg_result" : "2" ,  "reg_result_date" : "2018-06-17 11:38:34" ,  "reg_cert_filename" : "test_1-2561-6-17-4-193.pdf" } 
 , { "reg_no" : "194" ,  "reg_id" : "194" ,  "reg_title" : "นางสาว" ,  "reg_fname" : "สุณิสา" ,  "reg_lname" : "พุทธังกุโร" ,  "reg_cid" : "1900900175486" ,  "reg_result" : "2" ,  "reg_result_date" : "2018-06-17 12:11:46" ,  "reg_cert_filename" : "test_1-2561-6-17-4-194.pdf" } 
 , { "reg_no" : "195" ,  "reg_id" : "195" ,  "reg_title" : "นางสาว" ,  "reg_fname" : "สุดารัตน์" ,  "reg_lname" : "เทียมทนงค์" ,  "reg_cid" : "1461300166724" ,  "reg_result" : "2" ,  "reg_result_date" : "2018-06-17 12:23:34" ,  "reg_cert_filename" : "test_1-2561-6-17-4-195.pdf" } 
 , { "reg_no" : "196" ,  "reg_id" : "196" ,  "reg_title" : "นาย" ,  "reg_fname" : "สุทธินันท์" ,  "reg_lname" : "กันชัย" ,  "reg_cid" : "1560600103050" ,  "reg_result" : "1" ,  "reg_result_date" : "2018-06-17 12:06:24" ,  "reg_cert_filename" : "test_1-2561-6-17-4-196.pdf" } 
 , { "reg_no" : "197" ,  "reg_id" : "197" ,  "reg_title" : "นาย" ,  "reg_fname" : "สุปัญญา" ,  "reg_lname" : "พันสว่าง" ,  "reg_cid" : "1100201283309" ,  "reg_result" : "1" ,  "reg_result_date" : "2018-06-17 11:28:45" ,  "reg_cert_filename" : "test_1-2561-6-17-4-197.pdf" } 
 , { "reg_no" : "198" ,  "reg_id" : "198" ,  "reg_title" : "นางสาว" ,  "reg_fname" : "สุพิชฌาย์" ,  "reg_lname" : "ชาญชลยุทธ" ,  "reg_cid" : "1101700231691" ,  "reg_result" : "1" ,  "reg_result_date" : "2018-06-17 11:36:42" ,  "reg_cert_filename" : "test_1-2561-6-17-4-198.pdf" } 
 , { "reg_no" : "199" ,  "reg_id" : "199" ,  "reg_title" : "นาย" ,  "reg_fname" : "สุภาณุวงศ์" ,  "reg_lname" : "ด้วงทิพย์" ,  "reg_cid" : "1809900697686" ,  "reg_result" : "2" ,  "reg_result_date" : "2018-06-17 11:54:26" ,  "reg_cert_filename" : "test_1-2561-6-17-4-199.pdf" } 
 , { "reg_no" : "200" ,  "reg_id" : "200" ,  "reg_title" : "นาย" ,  "reg_fname" : "สุเมธัส" ,  "reg_lname" : "วัฒนา" ,  "reg_cid" : "1100702258838" ,  "reg_result" : "1" ,  "reg_result_date" : "2018-06-17 11:16:40" ,  "reg_cert_filename" : "test_1-2561-6-17-4-200.pdf" } 
 , { "reg_no" : "201" ,  "reg_id" : "201" ,  "reg_title" : "นางสาว" ,  "reg_fname" : "อชิรญา" ,  "reg_lname" : "ทองอินทร์" ,  "reg_cid" : "1101402109790" ,  "reg_result" : "1" ,  "reg_result_date" : "2018-06-17 12:02:18" ,  "reg_cert_filename" : "test_1-2561-6-17-4-201.pdf" } 
 , { "reg_no" : "202" ,  "reg_id" : "202" ,  "reg_title" : "นาย" ,  "reg_fname" : "อนุสรณ์" ,  "reg_lname" : "ดวงสว่าง" ,  "reg_cid" : "1570900109835" ,  "reg_result" : "2" ,  "reg_result_date" : "2018-06-17 12:23:06" ,  "reg_cert_filename" : "test_1-2561-6-17-4-202.pdf" } 
 , { "reg_no" : "203" ,  "reg_id" : "203" ,  "reg_title" : "นางสาว" ,  "reg_fname" : "อรณี" ,  "reg_lname" : "ละมุลมอญ" ,  "reg_cid" : "1489900267341" ,  "reg_result" : "2" ,  "reg_result_date" : "2018-06-17 12:22:53" ,  "reg_cert_filename" : "test_1-2561-6-17-4-203.pdf" } 
 , { "reg_no" : "204" ,  "reg_id" : "204" ,  "reg_title" : "นางสาว" ,  "reg_fname" : "อรธีรา" ,  "reg_lname" : "เพ่งบุญ" ,  "reg_cid" : "1949900292600" ,  "reg_result" : "2" ,  "reg_result_date" : "2018-06-17 12:13:01" ,  "reg_cert_filename" : "test_1-2561-6-17-4-204.pdf" } 
 , { "reg_no" : "205" ,  "reg_id" : "205" ,  "reg_title" : "นาย" ,  "reg_fname" : "อรุณ" ,  "reg_lname" : "ธนกิจโกฏินนทน์" ,  "reg_cid" : "1100801053274" ,  "reg_result" : "1" ,  "reg_result_date" : "2018-06-17 12:14:53" ,  "reg_cert_filename" : "test_1-2561-6-17-4-205.pdf" } 
 , { "reg_no" : "206" ,  "reg_id" : "206" ,  "reg_title" : "นางสาว" ,  "reg_fname" : "อัจฉรียา" ,  "reg_lname" : "ว่องวานิช" ,  "reg_cid" : "1103300136749" ,  "reg_result" : "1" ,  "reg_result_date" : "2018-06-17 12:15:44" ,  "reg_cert_filename" : "test_1-2561-6-17-4-206.pdf" } 
 , { "reg_no" : "207" ,  "reg_id" : "207" ,  "reg_title" : "นางสาว" ,  "reg_fname" : "อัญชิสา" ,  "reg_lname" : "ฤทธิ์ประภา" ,  "reg_cid" : "1102002523468" ,  "reg_result" : "3" ,  "reg_result_date" : "1900-01-01 00:00:00" ,  "reg_cert_filename" : "" } 
 , { "reg_no" : "208" ,  "reg_id" : "208" ,  "reg_title" : "นาย" ,  "reg_fname" : "อันน์ อัลภาชน์" ,  "reg_lname" : "เมืองศรี" ,  "reg_cid" : "1509902776527" ,  "reg_result" : "2" ,  "reg_result_date" : "2018-06-17 11:48:43" ,  "reg_cert_filename" : "test_1-2561-6-17-4-208.pdf" } 
 , { "reg_no" : "209" ,  "reg_id" : "209" ,  "reg_title" : "นาย" ,  "reg_fname" : "อิทธิวรรตน์" ,  "reg_lname" : "สุวรรณฉวี" ,  "reg_cid" : "1101402085238" ,  "reg_result" : "2" ,  "reg_result_date" : "2018-06-17 11:38:14" ,  "reg_cert_filename" : "test_1-2561-6-17-4-209.pdf" } 
 , { "reg_no" : "210" ,  "reg_id" : "210" ,  "reg_title" : "นางสาว" ,  "reg_fname" : "อุสิชา" ,  "reg_lname" : "สันติมัค" ,  "reg_cid" : "1200101725619" ,  "reg_result" : "2" ,  "reg_result_date" : "2018-06-17 11:46:36" ,  "reg_cert_filename" : "test_1-2561-6-17-4-210.pdf" } 
 , { "reg_no" : "211" ,  "reg_id" : "211" ,  "reg_title" : "นาย" ,  "reg_fname" : "กรพงศ์" ,  "reg_lname" : "แสงมณี" ,  "reg_cid" : "2909801024133" ,  "reg_result" : "1" ,  "reg_result_date" : "2018-06-17 11:39:25" ,  "reg_cert_filename" : "test_1-2561-6-17-4-211.pdf" } 
 , { "reg_no" : "212" ,  "reg_id" : "212" ,  "reg_title" : "นาย" ,  "reg_fname" : "กฤตนันท์" ,  "reg_lname" : "คล้ายสุวรรณ์" ,  "reg_cid" : "1209600198566" ,  "reg_result" : "1" ,  "reg_result_date" : "2018-06-17 12:24:09" ,  "reg_cert_filename" : "test_1-2561-6-17-4-212.pdf" } 
 , { "reg_no" : "213" ,  "reg_id" : "213" ,  "reg_title" : "นาย" ,  "reg_fname" : "กอบชัย" ,  "reg_lname" : "อ้นเพชร" ,  "reg_cid" : "1929900531311" ,  "reg_result" : "1" ,  "reg_result_date" : "2018-06-17 11:33:06" ,  "reg_cert_filename" : "test_1-2561-6-17-4-213.pdf" } 
 , { "reg_no" : "214" ,  "reg_id" : "214" ,  "reg_title" : "นางสาว" ,  "reg_fname" : "กังสดาล" ,  "reg_lname" : "พรรัตนวิสัย" ,  "reg_cid" : "1100201139232" ,  "reg_result" : "1" ,  "reg_result_date" : "2018-06-17 12:00:16" ,  "reg_cert_filename" : "test_1-2561-6-17-4-214.pdf" } 
 , { "reg_no" : "215" ,  "reg_id" : "215" ,  "reg_title" : "นางสาว" ,  "reg_fname" : "กัญญาณัฐ" ,  "reg_lname" : "ศรีนอง" ,  "reg_cid" : "1909900454413" ,  "reg_result" : "2" ,  "reg_result_date" : "2018-06-17 11:30:59" ,  "reg_cert_filename" : "test_1-2561-6-17-4-215.pdf" } 
 , { "reg_no" : "216" ,  "reg_id" : "216" ,  "reg_title" : "นาย" ,  "reg_fname" : "กันตพล" ,  "reg_lname" : "สิรวิทูร" ,  "reg_cid" : "1229900682960" ,  "reg_result" : "1" ,  "reg_result_date" : "2018-06-17 10:59:55" ,  "reg_cert_filename" : "test_1-2561-6-17-4-216.pdf" } 
 , { "reg_no" : "217" ,  "reg_id" : "217" ,  "reg_title" : "นาย" ,  "reg_fname" : "กัปตัน" ,  "reg_lname" : "มากกุญชร" ,  "reg_cid" : "2629900024240" ,  "reg_result" : "2" ,  "reg_result_date" : "2018-06-17 12:02:21" ,  "reg_cert_filename" : "test_1-2561-6-17-4-217.pdf" } 
 , { "reg_no" : "218" ,  "reg_id" : "218" ,  "reg_title" : "นาย" ,  "reg_fname" : "กิติพงษ์" ,  "reg_lname" : "ดำทอง" ,  "reg_cid" : "1909801080833" ,  "reg_result" : "2" ,  "reg_result_date" : "2018-06-17 12:07:33" ,  "reg_cert_filename" : "test_1-2561-6-17-4-218.pdf" } 
 , { "reg_no" : "219" ,  "reg_id" : "219" ,  "reg_title" : "นางสาว" ,  "reg_fname" : "กุลสตรี" ,  "reg_lname" : "ทัฬหชัยกุล" ,  "reg_cid" : "1229900695093" ,  "reg_result" : "1" ,  "reg_result_date" : "2018-06-17 12:23:05" ,  "reg_cert_filename" : "test_1-2561-6-17-4-219.pdf" } 
 , { "reg_no" : "220" ,  "reg_id" : "220" ,  "reg_title" : "นาย" ,  "reg_fname" : "จักรพันธ์" ,  "reg_lname" : "ร่วมทอง" ,  "reg_cid" : "1370600005246" ,  "reg_result" : "2" ,  "reg_result_date" : "2018-06-17 12:23:33" ,  "reg_cert_filename" : "test_1-2561-6-17-4-220.pdf" } 
 , { "reg_no" : "221" ,  "reg_id" : "221" ,  "reg_title" : "นาย" ,  "reg_fname" : "จักรินทร์" ,  "reg_lname" : "วงชมภู" ,  "reg_cid" : "1409901322302" ,  "reg_result" : "1" ,  "reg_result_date" : "2018-06-17 11:48:41" ,  "reg_cert_filename" : "test_1-2561-6-17-4-221.pdf" } 
 , { "reg_no" : "222" ,  "reg_id" : "222" ,  "reg_title" : "นาย" ,  "reg_fname" : "จิรภัทร" ,  "reg_lname" : "อธิคมไตรรัตน์" ,  "reg_cid" : "1100702632578" ,  "reg_result" : "1" ,  "reg_result_date" : "2018-06-17 12:27:08" ,  "reg_cert_filename" : "test_1-2561-6-17-4-222.pdf" } 
 , { "reg_no" : "223" ,  "reg_id" : "223" ,  "reg_title" : "นาย" ,  "reg_fname" : "จิรายุทธ" ,  "reg_lname" : "สุขสุดประเสริฐ" ,  "reg_cid" : "1100400892135" ,  "reg_result" : "3" ,  "reg_result_date" : "1900-01-01 00:00:00" ,  "reg_cert_filename" : "" } 
 , { "reg_no" : "224" ,  "reg_id" : "224" ,  "reg_title" : "นาย" ,  "reg_fname" : "จุตินันท์" ,  "reg_lname" : "อิ่มสุขศิลป์" ,  "reg_cid" : "1100702506718" ,  "reg_result" : "1" ,  "reg_result_date" : "2018-06-17 11:44:59" ,  "reg_cert_filename" : "test_1-2561-6-17-4-224.pdf" } 
 , { "reg_no" : "225" ,  "reg_id" : "225" ,  "reg_title" : "นางสาว" ,  "reg_fname" : "จุฬาภา" ,  "reg_lname" : "เทพนม" ,  "reg_cid" : "1100501292419" ,  "reg_result" : "1" ,  "reg_result_date" : "2018-06-17 11:50:58" ,  "reg_cert_filename" : "test_1-2561-6-17-4-225.pdf" } 
 , { "reg_no" : "226" ,  "reg_id" : "226" ,  "reg_title" : "นางสาว" ,  "reg_fname" : "จุฬามณี" ,  "reg_lname" : "แก้วอาสา" ,  "reg_cid" : "1401600237953" ,  "reg_result" : "2" ,  "reg_result_date" : "2018-06-17 12:24:30" ,  "reg_cert_filename" : "test_1-2561-6-17-4-226.pdf" } 
 , { "reg_no" : "227" ,  "reg_id" : "227" ,  "reg_title" : "นาย" ,  "reg_fname" : "เจษฎากร" ,  "reg_lname" : "เพ็งสะและ" ,  "reg_cid" : "1909801050730" ,  "reg_result" : "1" ,  "reg_result_date" : "2018-06-17 12:00:25" ,  "reg_cert_filename" : "test_1-2561-6-17-4-227.pdf" } 
 , { "reg_no" : "228" ,  "reg_id" : "228" ,  "reg_title" : "นางสาว" ,  "reg_fname" : "ชนม์ชนก" ,  "reg_lname" : "พรมคำซาว" ,  "reg_cid" : "1101402124691" ,  "reg_result" : "1" ,  "reg_result_date" : "2018-06-17 12:23:23" ,  "reg_cert_filename" : "test_1-2561-6-17-4-228.pdf" } 
 , { "reg_no" : "229" ,  "reg_id" : "229" ,  "reg_title" : "นาย" ,  "reg_fname" : "ชนสรณ์" ,  "reg_lname" : "ศรีรักษา" ,  "reg_cid" : "1160100490741" ,  "reg_result" : "1" ,  "reg_result_date" : "2018-06-17 11:58:50" ,  "reg_cert_filename" : "test_1-2561-6-17-4-229.pdf" } 
 , { "reg_no" : "230" ,  "reg_id" : "230" ,  "reg_title" : "นางสาว" ,  "reg_fname" : "ชนัญญา" ,  "reg_lname" : "สว่างคง" ,  "reg_cid" : "1100702704960" ,  "reg_result" : "1" ,  "reg_result_date" : "2018-06-17 12:27:16" ,  "reg_cert_filename" : "test_1-2561-6-17-4-230.pdf" } 
 , { "reg_no" : "231" ,  "reg_id" : "231" ,  "reg_title" : "นาย" ,  "reg_fname" : "ชนาธิป" ,  "reg_lname" : "อักษร" ,  "reg_cid" : "1830300076887" ,  "reg_result" : "2" ,  "reg_result_date" : "2018-06-17 11:39:54" ,  "reg_cert_filename" : "test_1-2561-6-17-4-231.pdf" } 
 , { "reg_no" : "232" ,  "reg_id" : "232" ,  "reg_title" : "นาย" ,  "reg_fname" : "ชวัลวิทย์" ,  "reg_lname" : "เจณิญสุขสุวรรณ" ,  "reg_cid" : "1103701840064" ,  "reg_result" : "1" ,  "reg_result_date" : "2018-06-17 11:57:42" ,  "reg_cert_filename" : "test_1-2561-6-17-4-232.pdf" } 
 , { "reg_no" : "233" ,  "reg_id" : "233" ,  "reg_title" : "นางสาว" ,  "reg_fname" : "ชัญญาณัภ์ช" ,  "reg_lname" : "บุดดาดวง" ,  "reg_cid" : "1409600210751" ,  "reg_result" : "2" ,  "reg_result_date" : "2018-06-17 12:23:22" ,  "reg_cert_filename" : "test_1-2561-6-17-4-233.pdf" } 
 , { "reg_no" : "234" ,  "reg_id" : "234" ,  "reg_title" : "นาย" ,  "reg_fname" : "ญาณวุฒิ" ,  "reg_lname" : "คิมนารักษ์" ,  "reg_cid" : "1739900596546" ,  "reg_result" : "1" ,  "reg_result_date" : "2018-06-17 11:52:19" ,  "reg_cert_filename" : "test_1-2561-6-17-4-234.pdf" } 
 , { "reg_no" : "235" ,  "reg_id" : "235" ,  "reg_title" : "นางสาว" ,  "reg_fname" : "ญาณินี" ,  "reg_lname" : "โชคชินพัฒน์" ,  "reg_cid" : "1102002525088" ,  "reg_result" : "1" ,  "reg_result_date" : "2018-06-17 12:00:29" ,  "reg_cert_filename" : "test_1-2561-6-17-4-235.pdf" } 
 , { "reg_no" : "236" ,  "reg_id" : "236" ,  "reg_title" : "นางสาว" ,  "reg_fname" : "ฐิติยาพร" ,  "reg_lname" : "นิ่มน้อย" ,  "reg_cid" : "1139800005185" ,  "reg_result" : "1" ,  "reg_result_date" : "2018-06-17 12:24:25" ,  "reg_cert_filename" : "test_1-2561-6-17-4-236.pdf" } 
 , { "reg_no" : "237" ,  "reg_id" : "237" ,  "reg_title" : "นาย" ,  "reg_fname" : "ณัชพล" ,  "reg_lname" : "คมปราชญ์" ,  "reg_cid" : "1659900759985" ,  "reg_result" : "3" ,  "reg_result_date" : "1900-01-01 00:00:00" ,  "reg_cert_filename" : "" } 
 , { "reg_no" : "238" ,  "reg_id" : "238" ,  "reg_title" : "นาย" ,  "reg_fname" : "ณัชพล" ,  "reg_lname" : "เตชะสุขะโต" ,  "reg_cid" : "1102800084186" ,  "reg_result" : "1" ,  "reg_result_date" : "2018-06-17 11:58:21" ,  "reg_cert_filename" : "test_1-2561-6-17-4-238.pdf" } 
 , { "reg_no" : "239" ,  "reg_id" : "239" ,  "reg_title" : "นาย" ,  "reg_fname" : "ณัฐกิจ" ,  "reg_lname" : "ดำเกิด" ,  "reg_cid" : "1809900732350" ,  "reg_result" : "1" ,  "reg_result_date" : "2018-06-17 12:13:22" ,  "reg_cert_filename" : "test_1-2561-6-17-4-239.pdf" } 
 , { "reg_no" : "240" ,  "reg_id" : "240" ,  "reg_title" : "นางสาว" ,  "reg_fname" : "ณัฐนิยตา" ,  "reg_lname" : "ชนะทัพ" ,  "reg_cid" : "1849900285680" ,  "reg_result" : "2" ,  "reg_result_date" : "2018-06-17 12:23:23" ,  "reg_cert_filename" : "test_1-2561-6-17-4-240.pdf" } 
 , { "reg_no" : "241" ,  "reg_id" : "241" ,  "reg_title" : "นางสาว" ,  "reg_fname" : "ณัฐพร" ,  "reg_lname" : "แซ่ก้อ" ,  "reg_cid" : "1849900237669" ,  "reg_result" : "1" ,  "reg_result_date" : "2018-06-17 12:00:03" ,  "reg_cert_filename" : "test_1-2561-6-17-4-241.pdf" } 
 , { "reg_no" : "242" ,  "reg_id" : "242" ,  "reg_title" : "นาย" ,  "reg_fname" : "ณัฐภัทร" ,  "reg_lname" : "จินดาประเสริฐ" ,  "reg_cid" : "1249900389031" ,  "reg_result" : "1" ,  "reg_result_date" : "2018-06-17 12:20:45" ,  "reg_cert_filename" : "test_1-2561-6-17-4-242.pdf" } 
 , { "reg_no" : "243" ,  "reg_id" : "243" ,  "reg_title" : "นาย" ,  "reg_fname" : "ณัฐวุฒิ" ,  "reg_lname" : "เบ็ญจกล" ,  "reg_cid" : "1809900705646" ,  "reg_result" : "1" ,  "reg_result_date" : "2018-06-17 12:19:43" ,  "reg_cert_filename" : "test_1-2561-6-17-4-243.pdf" } 
 , { "reg_no" : "244" ,  "reg_id" : "244" ,  "reg_title" : "นาย" ,  "reg_fname" : "ณัฐสร" ,  "reg_lname" : "อนันตลาโภชัย" ,  "reg_cid" : "1505200030793" ,  "reg_result" : "1" ,  "reg_result_date" : "2018-06-17 11:47:14" ,  "reg_cert_filename" : "test_1-2561-6-17-4-244.pdf" } 
 , { "reg_no" : "245" ,  "reg_id" : "245" ,  "reg_title" : "นางสาว" ,  "reg_fname" : "ณิชา" ,  "reg_lname" : "คาระวะวัฒนา" ,  "reg_cid" : "1909802230553" ,  "reg_result" : "1" ,  "reg_result_date" : "2018-06-17 12:25:30" ,  "reg_cert_filename" : "test_1-2561-6-17-4-245.pdf" } 
 , { "reg_no" : "246" ,  "reg_id" : "246" ,  "reg_title" : "นางสาว" ,  "reg_fname" : "ณิชา" ,  "reg_lname" : "อำนาจรัตน์" ,  "reg_cid" : "1579900572355" ,  "reg_result" : "1" ,  "reg_result_date" : "2018-06-17 12:13:40" ,  "reg_cert_filename" : "test_1-2561-6-17-4-246.pdf" } 
 , { "reg_no" : "247" ,  "reg_id" : "247" ,  "reg_title" : "นาย" ,  "reg_fname" : "เตวิช" ,  "reg_lname" : "จำรัสรังษี" ,  "reg_cid" : "1959800120521" ,  "reg_result" : "2" ,  "reg_result_date" : "2018-06-17 12:04:55" ,  "reg_cert_filename" : "test_1-2561-6-17-4-247.pdf" } 
 , { "reg_no" : "248" ,  "reg_id" : "248" ,  "reg_title" : "นางสาว" ,  "reg_fname" : "ธนพร" ,  "reg_lname" : "เกื้อมณี" ,  "reg_cid" : "1909900455053" ,  "reg_result" : "1" ,  "reg_result_date" : "2018-06-17 12:02:53" ,  "reg_cert_filename" : "test_1-2561-6-17-4-248.pdf" } 
 , { "reg_no" : "249" ,  "reg_id" : "249" ,  "reg_title" : "นาย" ,  "reg_fname" : "ธนวิน" ,  "reg_lname" : "เลี้ยงเจริญทรัพย์" ,  "reg_cid" : "1102002181923" ,  "reg_result" : "1" ,  "reg_result_date" : "2018-06-17 12:05:31" ,  "reg_cert_filename" : "test_1-2561-6-17-4-249.pdf" } 
 , { "reg_no" : "250" ,  "reg_id" : "250" ,  "reg_title" : "นาย" ,  "reg_fname" : "ธนินท์" ,  "reg_lname" : "จินตนาเลิศ" ,  "reg_cid" : "1209701805786" ,  "reg_result" : "3" ,  "reg_result_date" : "1900-01-01 00:00:00" ,  "reg_cert_filename" : "" } 
 , { "reg_no" : "251" ,  "reg_id" : "251" ,  "reg_title" : "นางสาว" ,  "reg_fname" : "ธัญพิชชา" ,  "reg_lname" : "ธัญญาวุฒิเลิศ" ,  "reg_cid" : "1102002521104" ,  "reg_result" : "1" ,  "reg_result_date" : "2018-06-17 12:05:54" ,  "reg_cert_filename" : "test_1-2561-6-17-4-251.pdf" } 
 , { "reg_no" : "252" ,  "reg_id" : "252" ,  "reg_title" : "นางสาว" ,  "reg_fname" : "ธัญวรัตน์" ,  "reg_lname" : "กมุทชาติ" ,  "reg_cid" : "1659900738821" ,  "reg_result" : "2" ,  "reg_result_date" : "2018-06-17 12:09:03" ,  "reg_cert_filename" : "test_1-2561-6-17-4-252.pdf" } 
 , { "reg_no" : "253" ,  "reg_id" : "253" ,  "reg_title" : "นางสาว" ,  "reg_fname" : "ธิติสุดา" ,  "reg_lname" : "คุณสิม" ,  "reg_cid" : "1103702303216" ,  "reg_result" : "1" ,  "reg_result_date" : "2018-06-17 12:21:21" ,  "reg_cert_filename" : "test_1-2561-6-17-4-253.pdf" } 
 , { "reg_no" : "254" ,  "reg_id" : "254" ,  "reg_title" : "นาย" ,  "reg_fname" : "นวชาต" ,  "reg_lname" : "ชุติพรอนันต์" ,  "reg_cid" : "1100201233239" ,  "reg_result" : "1" ,  "reg_result_date" : "2018-06-17 11:28:37" ,  "reg_cert_filename" : "test_1-2561-6-17-4-254.pdf" } 
 , { "reg_no" : "255" ,  "reg_id" : "255" ,  "reg_title" : "นางสาว" ,  "reg_fname" : "นันทกาญจน์" ,  "reg_lname" : "เรืองรอง" ,  "reg_cid" : "1909801096543" ,  "reg_result" : "2" ,  "reg_result_date" : "2018-06-17 11:35:22" ,  "reg_cert_filename" : "test_1-2561-6-17-4-255.pdf" } 
 , { "reg_no" : "256" ,  "reg_id" : "256" ,  "reg_title" : "นางสาว" ,  "reg_fname" : "บุญสิตา" ,  "reg_lname" : "เอกโพธิ์" ,  "reg_cid" : "1103702032263" ,  "reg_result" : "1" ,  "reg_result_date" : "2018-06-17 12:07:42" ,  "reg_cert_filename" : "test_1-2561-6-17-4-256.pdf" } 
 , { "reg_no" : "257" ,  "reg_id" : "257" ,  "reg_title" : "นางสาว" ,  "reg_fname" : "เบญญาภา" ,  "reg_lname" : "โชติรัตนะศิริ" ,  "reg_cid" : "1102002550937" ,  "reg_result" : "1" ,  "reg_result_date" : "2018-06-17 12:15:15" ,  "reg_cert_filename" : "test_1-2561-6-17-4-257.pdf" } 
 , { "reg_no" : "258" ,  "reg_id" : "258" ,  "reg_title" : "นางสาว" ,  "reg_fname" : "ไบท์" ,  "reg_lname" : "กันธิยา" ,  "reg_cid" : "1100801118422" ,  "reg_result" : "1" ,  "reg_result_date" : "2018-06-17 11:31:59" ,  "reg_cert_filename" : "test_1-2561-6-17-4-258.pdf" } 
 , { "reg_no" : "259" ,  "reg_id" : "259" ,  "reg_title" : "นางสาว" ,  "reg_fname" : "ปสุตา" ,  "reg_lname" : "ยิ่งประเสริฐ" ,  "reg_cid" : "1102700624235" ,  "reg_result" : "3" ,  "reg_result_date" : "1900-01-01 00:00:00" ,  "reg_cert_filename" : "" } 
 , { "reg_no" : "260" ,  "reg_id" : "260" ,  "reg_title" : "นางสาว" ,  "reg_fname" : "ประนัดดา" ,  "reg_lname" : "นันทา" ,  "reg_cid" : "1431200045941" ,  "reg_result" : "2" ,  "reg_result_date" : "2018-06-17 12:12:20" ,  "reg_cert_filename" : "test_1-2561-6-17-4-260.pdf" } 
 , { "reg_no" : "261" ,  "reg_id" : "261" ,  "reg_title" : "นางสาว" ,  "reg_fname" : "ปัทมา" ,  "reg_lname" : "พริกบุญจันทร์" ,  "reg_cid" : "1809900703961" ,  "reg_result" : "2" ,  "reg_result_date" : "2018-06-17 12:15:38" ,  "reg_cert_filename" : "test_1-2561-6-17-4-261.pdf" } 
 , { "reg_no" : "262" ,  "reg_id" : "262" ,  "reg_title" : "นาย" ,  "reg_fname" : "ปานเทพ" ,  "reg_lname" : "สุขาทิพย์" ,  "reg_cid" : "1909801116803" ,  "reg_result" : "2" ,  "reg_result_date" : "2018-06-17 12:10:45" ,  "reg_cert_filename" : "test_1-2561-6-17-4-262.pdf" } 
 , { "reg_no" : "263" ,  "reg_id" : "263" ,  "reg_title" : "นางสาว" ,  "reg_fname" : "ปุณยนุช" ,  "reg_lname" : "สิทธิกล" ,  "reg_cid" : "1103701686791" ,  "reg_result" : "3" ,  "reg_result_date" : "1900-01-01 00:00:00" ,  "reg_cert_filename" : "" } 
 , { "reg_no" : "264" ,  "reg_id" : "264" ,  "reg_title" : "นาย" ,  "reg_fname" : "พงศภัค" ,  "reg_lname" : "ปัญจศุทธิ" ,  "reg_cid" : "1100501424498" ,  "reg_result" : "1" ,  "reg_result_date" : "2018-06-17 11:10:29" ,  "reg_cert_filename" : "test_1-2561-6-17-4-264.pdf" } 
 , { "reg_no" : "265" ,  "reg_id" : "265" ,  "reg_title" : "นางสาว" ,  "reg_fname" : "พรชนก" ,  "reg_lname" : "ต่อเอกบัณฑิต" ,  "reg_cid" : "1101402089659" ,  "reg_result" : "2" ,  "reg_result_date" : "2018-06-17 12:07:33" ,  "reg_cert_filename" : "test_1-2561-6-17-4-265.pdf" } 
 , { "reg_no" : "266" ,  "reg_id" : "266" ,  "reg_title" : "นาย" ,  "reg_fname" : "พลพสิษฐ์" ,  "reg_lname" : "สิริพูนสมบัติ" ,  "reg_cid" : "1101402079726" ,  "reg_result" : "1" ,  "reg_result_date" : "2018-06-17 12:24:28" ,  "reg_cert_filename" : "test_1-2561-6-17-4-266.pdf" } 
 , { "reg_no" : "267" ,  "reg_id" : "267" ,  "reg_title" : "นางสาว" ,  "reg_fname" : "พวงเพ็ชร" ,  "reg_lname" : "หงษ์ดิลกกุล" ,  "reg_cid" : "1411100305038" ,  "reg_result" : "1" ,  "reg_result_date" : "2018-06-17 11:53:51" ,  "reg_cert_filename" : "test_1-2561-6-17-4-267.pdf" } 
 , { "reg_no" : "268" ,  "reg_id" : "268" ,  "reg_title" : "นางสาว" ,  "reg_fname" : "พัชราวรรณ" ,  "reg_lname" : "สุขราช" ,  "reg_cid" : "1420900273601" ,  "reg_result" : "1" ,  "reg_result_date" : "2018-06-17 12:22:01" ,  "reg_cert_filename" : "test_1-2561-6-17-4-268.pdf" } 
 , { "reg_no" : "269" ,  "reg_id" : "269" ,  "reg_title" : "นางสาว" ,  "reg_fname" : "พันทิรา" ,  "reg_lname" : "รุ่งเจริญ" ,  "reg_cid" : "1119600009624" ,  "reg_result" : "2" ,  "reg_result_date" : "2018-06-17 12:02:47" ,  "reg_cert_filename" : "test_1-2561-6-17-4-269.pdf" } 
 , { "reg_no" : "270" ,  "reg_id" : "270" ,  "reg_title" : "นางสาว" ,  "reg_fname" : "พิมพ์ชนก" ,  "reg_lname" : "บางทับ" ,  "reg_cid" : "1679900405555" ,  "reg_result" : "2" ,  "reg_result_date" : "2018-06-17 11:46:03" ,  "reg_cert_filename" : "test_1-2561-6-17-4-270.pdf" } 
 , { "reg_no" : "271" ,  "reg_id" : "271" ,  "reg_title" : "นาย" ,  "reg_fname" : "ภาษิต" ,  "reg_lname" : "พรพิมาน" ,  "reg_cid" : "1103300187467" ,  "reg_result" : "1" ,  "reg_result_date" : "2018-06-17 11:50:15" ,  "reg_cert_filename" : "test_1-2561-6-17-4-271.pdf" } 
 , { "reg_no" : "272" ,  "reg_id" : "272" ,  "reg_title" : "นาย" ,  "reg_fname" : "ภาสชัย" ,  "reg_lname" : "ผลอนันต์" ,  "reg_cid" : "1101700211118" ,  "reg_result" : "1" ,  "reg_result_date" : "2018-06-17 11:52:01" ,  "reg_cert_filename" : "test_1-2561-6-17-4-272.pdf" } 
 , { "reg_no" : "273" ,  "reg_id" : "273" ,  "reg_title" : "นางสาว" ,  "reg_fname" : "มนัญชยา" ,  "reg_lname" : "สุขสมทรง" ,  "reg_cid" : "1100801071787" ,  "reg_result" : "1" ,  "reg_result_date" : "2018-06-17 12:06:10" ,  "reg_cert_filename" : "test_1-2561-6-17-4-273.pdf" } 
 , { "reg_no" : "274" ,  "reg_id" : "274" ,  "reg_title" : "นางสาว" ,  "reg_fname" : "โมเรศ" ,  "reg_lname" : "หลงสมบูรณ์" ,  "reg_cid" : "1103300172192" ,  "reg_result" : "1" ,  "reg_result_date" : "2018-06-17 12:01:15" ,  "reg_cert_filename" : "test_1-2561-6-17-4-274.pdf" } 
 , { "reg_no" : "275" ,  "reg_id" : "275" ,  "reg_title" : "นางสาว" ,  "reg_fname" : "รพีพร" ,  "reg_lname" : "บวรวงศ์เสถียร" ,  "reg_cid" : "1529900808596" ,  "reg_result" : "1" ,  "reg_result_date" : "2018-06-17 11:31:02" ,  "reg_cert_filename" : "test_1-2561-6-17-4-275.pdf" } 
 , { "reg_no" : "276" ,  "reg_id" : "276" ,  "reg_title" : "นาย" ,  "reg_fname" : "รักพงศ์" ,  "reg_lname" : "เจริญพงศ์" ,  "reg_cid" : "1529900852820" ,  "reg_result" : "1" ,  "reg_result_date" : "2018-06-17 11:15:07" ,  "reg_cert_filename" : "test_1-2561-6-17-4-276.pdf" } 
 , { "reg_no" : "277" ,  "reg_id" : "277" ,  "reg_title" : "นาย" ,  "reg_fname" : "ราม" ,  "reg_lname" : "รองขุน" ,  "reg_cid" : "1909802192228" ,  "reg_result" : "1" ,  "reg_result_date" : "2018-06-17 11:53:23" ,  "reg_cert_filename" : "test_1-2561-6-17-4-277.pdf" } 
 , { "reg_no" : "278" ,  "reg_id" : "278" ,  "reg_title" : "นาย" ,  "reg_fname" : "รุ่งอนันต์" ,  "reg_lname" : "บัวปรี" ,  "reg_cid" : "1609900395118" ,  "reg_result" : "3" ,  "reg_result_date" : "1900-01-01 00:00:00" ,  "reg_cert_filename" : "" } 
 , { "reg_no" : "279" ,  "reg_id" : "279" ,  "reg_title" : "นาย" ,  "reg_fname" : "วงศกร" ,  "reg_lname" : "เปี่ยมสอาด" ,  "reg_cid" : "1120300063633" ,  "reg_result" : "2" ,  "reg_result_date" : "2018-06-17 11:26:41" ,  "reg_cert_filename" : "test_1-2561-6-17-4-279.pdf" } 
 , { "reg_no" : "280" ,  "reg_id" : "280" ,  "reg_title" : "นาย" ,  "reg_fname" : "วรพล" ,  "reg_lname" : "บวรเสถียรโชติ" ,  "reg_cid" : "1101800870288" ,  "reg_result" : "1" ,  "reg_result_date" : "2018-06-17 11:41:31" ,  "reg_cert_filename" : "test_1-2561-6-17-4-280.pdf" } 
 , { "reg_no" : "281" ,  "reg_id" : "281" ,  "reg_title" : "นางสาว" ,  "reg_fname" : "วริศรา" ,  "reg_lname" : "โสมทัต" ,  "reg_cid" : "1101402073671" ,  "reg_result" : "1" ,  "reg_result_date" : "2018-06-17 11:52:57" ,  "reg_cert_filename" : "test_1-2561-6-17-4-281.pdf" } 
 , { "reg_no" : "282" ,  "reg_id" : "282" ,  "reg_title" : "นาย" ,  "reg_fname" : "วสุธร" ,  "reg_lname" : "ภูริเอกสุวรรณ" ,  "reg_cid" : "1739900615273" ,  "reg_result" : "1" ,  "reg_result_date" : "2018-06-17 12:09:22" ,  "reg_cert_filename" : "test_1-2561-6-17-4-282.pdf" } 
 , { "reg_no" : "283" ,  "reg_id" : "283" ,  "reg_title" : "นาย" ,  "reg_fname" : "วัชรินทร์" ,  "reg_lname" : "ด้วงสังข์" ,  "reg_cid" : "1800700214870" ,  "reg_result" : "1" ,  "reg_result_date" : "2018-06-17 11:08:12" ,  "reg_cert_filename" : "test_1-2561-6-17-4-283.pdf" } 
 , { "reg_no" : "284" ,  "reg_id" : "284" ,  "reg_title" : "นางสาว" ,  "reg_fname" : "วารุณพร" ,  "reg_lname" : "โกยทอง" ,  "reg_cid" : "1100702164353" ,  "reg_result" : "1" ,  "reg_result_date" : "2018-06-17 11:18:54" ,  "reg_cert_filename" : "test_1-2561-6-17-4-284.pdf" } 
 , { "reg_no" : "285" ,  "reg_id" : "285" ,  "reg_title" : "นางสาว" ,  "reg_fname" : "วิภวานี" ,  "reg_lname" : "นาคเจริญ" ,  "reg_cid" : "1100801111436" ,  "reg_result" : "1" ,  "reg_result_date" : "2018-06-17 11:54:32" ,  "reg_cert_filename" : "test_1-2561-6-17-4-285.pdf" } 
 , { "reg_no" : "286" ,  "reg_id" : "286" ,  "reg_title" : "นางสาว" ,  "reg_fname" : "ศศิพรรณ" ,  "reg_lname" : "พรรณสวัสดิ์" ,  "reg_cid" : "1100400785746" ,  "reg_result" : "1" ,  "reg_result_date" : "2018-06-17 11:34:32" ,  "reg_cert_filename" : "test_1-2561-6-17-4-286.pdf" } 
 , { "reg_no" : "287" ,  "reg_id" : "287" ,  "reg_title" : "นางสาว" ,  "reg_fname" : "ศิริลักษณ์" ,  "reg_lname" : "หน่อปันปวน" ,  "reg_cid" : "1509901697763" ,  "reg_result" : "1" ,  "reg_result_date" : "2018-06-17 11:54:54" ,  "reg_cert_filename" : "test_1-2561-6-17-4-287.pdf" } 
 , { "reg_no" : "288" ,  "reg_id" : "288" ,  "reg_title" : "นางสาว" ,  "reg_fname" : "ศุทธาภา" ,  "reg_lname" : "นพวิญญูวงศ์" ,  "reg_cid" : "1409901589376" ,  "reg_result" : "1" ,  "reg_result_date" : "2018-06-17 12:03:19" ,  "reg_cert_filename" : "test_1-2561-6-17-4-288.pdf" } 
 , { "reg_no" : "289" ,  "reg_id" : "289" ,  "reg_title" : "นาย" ,  "reg_fname" : "ศุภกร" ,  "reg_lname" : "แซ่เอี๊ยบ" ,  "reg_cid" : "1100400834895" ,  "reg_result" : "1" ,  "reg_result_date" : "2018-06-17 12:10:24" ,  "reg_cert_filename" : "test_1-2561-6-17-4-289.pdf" } 
 , { "reg_no" : "290" ,  "reg_id" : "290" ,  "reg_title" : "นาย" ,  "reg_fname" : "ศุภกานต์" ,  "reg_lname" : "วะโนปะ" ,  "reg_cid" : "1500901233882" ,  "reg_result" : "2" ,  "reg_result_date" : "2018-06-17 12:16:25" ,  "reg_cert_filename" : "test_1-2561-6-17-4-290.pdf" } 
 , { "reg_no" : "291" ,  "reg_id" : "291" ,  "reg_title" : "นาย" ,  "reg_fname" : "ศุภณัฐ" ,  "reg_lname" : "สุขเกียรติภัย" ,  "reg_cid" : "1140100074160" ,  "reg_result" : "3" ,  "reg_result_date" : "1900-01-01 00:00:00" ,  "reg_cert_filename" : "" } 
 , { "reg_no" : "292" ,  "reg_id" : "292" ,  "reg_title" : "นาย" ,  "reg_fname" : "สถิตโชค" ,  "reg_lname" : "พิชัย" ,  "reg_cid" : "1739900657138" ,  "reg_result" : "3" ,  "reg_result_date" : "1900-01-01 00:00:00" ,  "reg_cert_filename" : "" } 
 , { "reg_no" : "293" ,  "reg_id" : "293" ,  "reg_title" : "นางสาว" ,  "reg_fname" : "สวนันท์" ,  "reg_lname" : "ตันติวุฒิปกรณ์" ,  "reg_cid" : "1102002292709" ,  "reg_result" : "1" ,  "reg_result_date" : "2018-06-17 11:58:00" ,  "reg_cert_filename" : "test_1-2561-6-17-4-293.pdf" } 
 , { "reg_no" : "294" ,  "reg_id" : "294" ,  "reg_title" : "นาย" ,  "reg_fname" : "สัชญา" ,  "reg_lname" : "รุ่งแสงจันทร์" ,  "reg_cid" : "1710500319725" ,  "reg_result" : "1" ,  "reg_result_date" : "2018-06-17 11:12:21" ,  "reg_cert_filename" : "test_1-2561-6-17-4-294.pdf" } 
 , { "reg_no" : "295" ,  "reg_id" : "295" ,  "reg_title" : "นางสาว" ,  "reg_fname" : "สาริณี" ,  "reg_lname" : "สุระดะนัย" ,  "reg_cid" : "1419900593761" ,  "reg_result" : "1" ,  "reg_result_date" : "2018-06-17 12:16:54" ,  "reg_cert_filename" : "test_1-2561-6-17-4-295.pdf" } 
 , { "reg_no" : "296" ,  "reg_id" : "296" ,  "reg_title" : "นาย" ,  "reg_fname" : "สิรวิชญ์" ,  "reg_lname" : "ถาศักดิ์" ,  "reg_cid" : "1102002549203" ,  "reg_result" : "3" ,  "reg_result_date" : "1900-01-01 00:00:00" ,  "reg_cert_filename" : "" } 
 , { "reg_no" : "297" ,  "reg_id" : "297" ,  "reg_title" : "นางสาว" ,  "reg_fname" : "สิริกาญจน์" ,  "reg_lname" : "โสภา" ,  "reg_cid" : "1729900361930" ,  "reg_result" : "1" ,  "reg_result_date" : "2018-06-17 12:06:24" ,  "reg_cert_filename" : "test_1-2561-6-17-4-297.pdf" } 
 , { "reg_no" : "298" ,  "reg_id" : "298" ,  "reg_title" : "นาย" ,  "reg_fname" : "สิริพงศ์" ,  "reg_lname" : "วงษ์วิจิตสุข" ,  "reg_cid" : "1309901399870" ,  "reg_result" : "1" ,  "reg_result_date" : "2018-06-17 11:34:28" ,  "reg_cert_filename" : "test_1-2561-6-17-4-298.pdf" } 
 , { "reg_no" : "299" ,  "reg_id" : "299" ,  "reg_title" : "นางสาว" ,  "reg_fname" : "สิริยากร" ,  "reg_lname" : "ชนะเพีย" ,  "reg_cid" : "1409800327791" ,  "reg_result" : "2" ,  "reg_result_date" : "2018-06-17 11:56:15" ,  "reg_cert_filename" : "test_1-2561-6-17-4-299.pdf" } 
 , { "reg_no" : "300" ,  "reg_id" : "300" ,  "reg_title" : "นางสาว" ,  "reg_fname" : "สิริลักษณ์" ,  "reg_lname" : "พันธ์วงค์" ,  "reg_cid" : "1560300269386" ,  "reg_result" : "3" ,  "reg_result_date" : "1900-01-01 00:00:00" ,  "reg_cert_filename" : "" } 
 , { "reg_no" : "301" ,  "reg_id" : "301" ,  "reg_title" : "นาย" ,  "reg_fname" : "สืบศักย์" ,  "reg_lname" : "โรจนรัต" ,  "reg_cid" : "1103000080217" ,  "reg_result" : "1" ,  "reg_result_date" : "2018-06-17 11:16:30" ,  "reg_cert_filename" : "test_1-2561-6-17-4-301.pdf" } 
 , { "reg_no" : "302" ,  "reg_id" : "302" ,  "reg_title" : "นาย" ,  "reg_fname" : "สุกฤษฎิ์" ,  "reg_lname" : "บุญญไกร" ,  "reg_cid" : "1749900493020" ,  "reg_result" : "1" ,  "reg_result_date" : "2018-06-17 11:48:26" ,  "reg_cert_filename" : "test_1-2561-6-17-4-302.pdf" } 
 , { "reg_no" : "303" ,  "reg_id" : "303" ,  "reg_title" : "นาย" ,  "reg_fname" : "สุพงศ์" ,  "reg_lname" : "จันทิมา" ,  "reg_cid" : "1100400819691" ,  "reg_result" : "1" ,  "reg_result_date" : "2018-06-17 11:20:08" ,  "reg_cert_filename" : "test_1-2561-6-17-4-303.pdf" } 
 , { "reg_no" : "304" ,  "reg_id" : "304" ,  "reg_title" : "นางสาว" ,  "reg_fname" : "สุภัสสรา" ,  "reg_lname" : "ดำรงเกียรติ" ,  "reg_cid" : "1849900188048" ,  "reg_result" : "1" ,  "reg_result_date" : "2018-06-17 12:05:25" ,  "reg_cert_filename" : "test_1-2561-6-17-4-304.pdf" } 
 , { "reg_no" : "305" ,  "reg_id" : "305" ,  "reg_title" : "นางสาว" ,  "reg_fname" : "สุภาวิดา" ,  "reg_lname" : "มีเหมือน" ,  "reg_cid" : "1710500283518" ,  "reg_result" : "2" ,  "reg_result_date" : "2018-06-17 12:24:29" ,  "reg_cert_filename" : "test_1-2561-6-17-4-305.pdf" } 
 , { "reg_no" : "306" ,  "reg_id" : "306" ,  "reg_title" : "นาย" ,  "reg_fname" : "สุรวงศ์" ,  "reg_lname" : "สุวรรณภา" ,  "reg_cid" : "1300100154102" ,  "reg_result" : "2" ,  "reg_result_date" : "2018-06-17 11:50:02" ,  "reg_cert_filename" : "test_1-2561-6-17-4-306.pdf" } 
 , { "reg_no" : "307" ,  "reg_id" : "307" ,  "reg_title" : "นางสาว" ,  "reg_fname" : "สุรัสวดี" ,  "reg_lname" : "นิธิสมบัติ" ,  "reg_cid" : "1529900774543" ,  "reg_result" : "1" ,  "reg_result_date" : "2018-06-17 12:21:38" ,  "reg_cert_filename" : "test_1-2561-6-17-4-307.pdf" } 
 , { "reg_no" : "308" ,  "reg_id" : "308" ,  "reg_title" : "นางสาว" ,  "reg_fname" : "เสาวลักษณ์" ,  "reg_lname" : "ทองหลิ้ม" ,  "reg_cid" : "1550700121718" ,  "reg_result" : "1" ,  "reg_result_date" : "2018-06-17 12:18:05" ,  "reg_cert_filename" : "test_1-2561-6-17-4-308.pdf" } 
 , { "reg_no" : "309" ,  "reg_id" : "309" ,  "reg_title" : "นางสาว" ,  "reg_fname" : "อรพรรณ" ,  "reg_lname" : "นาคสุริยวงษ์" ,  "reg_cid" : "1739900593288" ,  "reg_result" : "1" ,  "reg_result_date" : "2018-06-17 11:32:58" ,  "reg_cert_filename" : "test_1-2561-6-17-4-309.pdf" } 
 , { "reg_no" : "310" ,  "reg_id" : "310" ,  "reg_title" : "นาย" ,  "reg_fname" : "อิทธิวัฒน์" ,  "reg_lname" : "สมบูรณ์ศิลป์" ,  "reg_cid" : "1659900678381" ,  "reg_result" : "2" ,  "reg_result_date" : "2018-06-17 11:15:51" ,  "reg_cert_filename" : "test_1-2561-6-17-4-310.pdf" } 
 , { "reg_no" : "311" ,  "reg_id" : "311" ,  "reg_title" : "นางสาว" ,  "reg_fname" : "อิสริยา" ,  "reg_lname" : "พลเพชร" ,  "reg_cid" : "1939900291638" ,  "reg_result" : "2" ,  "reg_result_date" : "2018-06-17 12:19:33" ,  "reg_cert_filename" : "test_1-2561-6-17-4-311.pdf" } ] }